<?xml version="1.0" encoding="iso-8859-1"?>
<!-- Generator: Adobe Illustrator 19.0.0, SVG Export Plug-In . SVG Version: 6.00 Build 0)  -->
<svg xmlns="http://www.w3.org/2000/svg" xmlns:xlink="http://www.w3.org/1999/xlink" version="1.1" id="Capa_1" x="0px" y="0px" viewBox="0 0 512.002 512.002" style="enable-background:new 0 0 512.002 512.002;" xml:space="preserve" width="512px" height="512px">
<g>
	<g>
		<path d="M390.998,95c-4.143,0-7.5,3.357-7.5,7.5c0,37.433-24.754,69.504-60,79.388V172.5c0-13.568-6.809-18.998-10.867-21.027    c-8.166-4.083-18.61-1.866-29.417,6.24l-14.754,11.065c-3.57-2.385-7.856-3.778-12.462-3.778s-8.892,1.394-12.462,3.778    l-14.753-11.065c-10.809-8.106-21.256-10.322-29.417-6.24c-4.059,2.029-10.867,7.459-10.867,21.027v9.386    c-35.244-9.885-59.996-41.955-59.996-79.386c0-4.143-3.357-7.5-7.5-7.5s-7.5,3.357-7.5,7.5c0,23.198,8.287,45.676,23.334,63.293    c13.483,15.785,31.649,26.826,51.662,31.569v5.138c0,13.568,6.809,18.998,10.867,21.027c1.32,0.66,2.701,1.154,4.133,1.487V292.5    c0,14.269,5.73,27.219,15,36.692v159.903l-24.872,8.29c-3.93,1.31-6.053,5.558-4.743,9.487c1.048,3.143,3.974,5.13,7.114,5.13    c0.786,0,1.586-0.125,2.373-0.387l30-10c3.063-1.021,5.128-3.887,5.128-7.115V339.924c6.824,3.251,14.452,5.076,22.5,5.076    c8.048,0,15.676-1.825,22.5-5.076V494.5c0,3.229,2.065,6.095,5.128,7.115l30,10c0.787,0.262,1.587,0.387,2.373,0.387    c3.141,0,6.066-1.987,7.114-5.13c1.31-3.93-0.813-8.178-4.743-9.487l-24.872-8.29V329.192c9.27-9.472,15-22.423,15-36.692v-67.486    c1.432-0.332,2.813-0.826,4.133-1.487c4.059-2.029,10.867-7.459,10.867-21.027v-5.136c20.014-4.742,38.181-15.784,51.665-31.57    c15.048-17.617,23.335-40.095,23.335-63.294C398.498,98.357,395.141,95,390.998,95z M249.953,183.079    c0.019-0.024,0.04-0.045,0.058-0.07c0.019-0.026,0.034-0.053,0.053-0.079c1.373-1.779,3.519-2.931,5.934-2.931    c2.41,0.001,4.551,1.147,5.924,2.919c0.022,0.03,0.04,0.062,0.062,0.092c0.021,0.029,0.046,0.053,0.068,0.082    c0.905,1.239,1.446,2.76,1.446,4.409s-0.541,3.17-1.446,4.409c-0.022,0.028-0.046,0.053-0.068,0.081    c-0.022,0.03-0.04,0.062-0.062,0.092c-1.373,1.771-3.515,2.918-5.924,2.918c-2.416,0-4.562-1.152-5.934-2.931    c-0.019-0.026-0.034-0.053-0.053-0.079c-0.018-0.024-0.039-0.045-0.058-0.07c-0.91-1.241-1.455-2.767-1.455-4.421    C248.498,185.846,249.042,184.321,249.953,183.079z M209.443,210.373c-1.445,0.234-2.595,0.128-3.37-0.26    c-1.612-0.807-2.575-3.651-2.575-7.611V172.5c0-3.96,0.963-6.805,2.575-7.611c2.174-1.087,7.255-0.017,13.709,4.824l14.744,11.059    c-0.667,2.125-1.029,4.386-1.029,6.729c0,2.343,0.361,4.603,1.029,6.729l-14.744,11.059c-3.99,2.993-7.453,4.541-10.031,5.033    C209.648,210.339,209.544,210.352,209.443,210.373z M293.497,292.5c0.001,20.678-16.821,37.5-37.499,37.5    c-20.678,0-37.5-16.822-37.5-37.5v-69.227c3.348-1.375,6.796-3.371,10.284-5.986l14.753-11.065    c1.532,1.023,3.197,1.862,4.962,2.488v98.79c0,4.143,3.357,7.5,7.5,7.5s7.5-3.357,7.5-7.5v-98.79    c1.765-0.626,3.43-1.465,4.962-2.488l14.754,11.065c3.488,2.616,6.937,4.611,10.284,5.986V292.5z M305.923,210.111    c-0.775,0.387-1.925,0.494-3.37,0.26c-0.102-0.021-0.206-0.034-0.31-0.052c-2.578-0.492-6.04-2.04-10.03-5.033l-14.745-11.058    c0.668-2.126,1.029-4.386,1.029-6.729s-0.361-4.603-1.029-6.729l14.745-11.058c6.454-4.841,11.534-5.912,13.709-4.824    c1.612,0.807,2.575,3.651,2.575,7.611V202.5h0.001C308.498,206.46,307.535,209.305,305.923,210.111z" fill="#FFFFFF"/>
	</g>
</g>
<g>
	<g>
		<path d="M338.498,67.5c-1.263,0-2.52,0.079-3.764,0.235c-8.495-9.619-20.771-15.235-33.736-15.235    c-4.019,0-7.956,0.527-11.771,1.564L262.621,3.981C261.32,1.531,258.772,0,255.998,0c-2.774,0-5.322,1.531-6.623,3.981    l-26.606,50.083c-3.815-1.037-7.752-1.564-11.771-1.564c-12.965,0-25.241,5.616-33.737,15.235c-1.244-0.156-2.5-0.235-3.763-0.235    c-16.542,0-30,13.458-30,30s13.458,30,30,30c1.262,0,2.519-0.079,3.763-0.235c8.495,9.62,20.772,15.235,33.737,15.235    c4.956,0,9.785-0.798,14.414-2.371c8.62,6.203,19.18,9.871,30.586,9.871s21.966-3.668,30.586-9.871    c4.629,1.572,9.458,2.371,14.414,2.371c12.965,0,25.242-5.616,33.736-15.235c1.245,0.156,2.501,0.235,3.764,0.235    c16.542,0,30-13.458,30-30S355.04,67.5,338.498,67.5z M255.998,23.486l12.197,22.959C264.278,45.51,260.198,45,255.998,45    s-8.28,0.51-12.197,1.446L255.998,23.486z M212.905,127.434c-0.633,0.04-1.268,0.065-1.907,0.065    c-9.778,0-18.974-4.798-24.596-12.834c-1.877-2.682-5.274-3.836-8.396-2.854c-1.453,0.457-2.971,0.688-4.509,0.688    c-8.271,0-15-6.729-15-15s6.73-14.999,15.001-14.999c1.538,0,3.055,0.231,4.506,0.688c3.124,0.983,6.522-0.173,8.398-2.854    c5.622-8.037,14.817-12.835,24.596-12.835c0.639,0,1.274,0.026,1.907,0.066c-5.921,8.498-9.407,18.814-9.407,29.934    C203.498,108.619,206.983,118.935,212.905,127.434z M255.998,135c-20.678,0-37.5-16.822-37.5-37.5S235.32,60,255.998,60    c20.678,0,37.5,16.822,37.5,37.5S276.676,135,255.998,135z M338.498,112.5c-1.539,0-3.057-0.231-4.51-0.688    c-3.122-0.981-6.521,0.174-8.396,2.855c-5.622,8.035-14.816,12.833-24.595,12.833c-0.639,0-1.274-0.026-1.907-0.065    c5.921-8.499,9.407-18.814,9.407-29.935c0-11.121-3.485-21.436-9.407-29.934c0.633-0.04,1.268-0.066,1.907-0.066    c9.779,0,18.974,4.798,24.596,12.834c1.876,2.682,5.273,3.838,8.398,2.854c1.451-0.457,2.968-0.688,4.507-0.688    c8.271,0,15,6.729,15,15S346.769,112.5,338.498,112.5z" fill="#FFFFFF"/>
	</g>
</g>
<g>
	<g>
		<path d="M255.998,75c-12.406,0-22.5,10.094-22.5,22.5s10.094,22.5,22.5,22.5s22.5-10.094,22.5-22.5S268.404,75,255.998,75z     M255.998,105c-4.136,0-7.5-3.364-7.5-7.5s3.364-7.5,7.5-7.5c4.136,0,7.5,3.364,7.5,7.5S260.134,105,255.998,105z" fill="#FFFFFF"/>
	</g>
</g>
</svg>