solid 
facet normal 0 0 0
	outer loop
		vertex -18.0 -6.0 0.0
		vertex -18.0 6.0 0.0
		vertex 18.0 -6.0 0.0
	endloop
endfacet
facet normal 0 0 0
	outer loop
		vertex -18.0 6.0 0.0
		vertex 18.0 6.0 0.0
		vertex 18.0 -6.0 0.0
	endloop
endfacet
facet normal 0 0 0
	outer loop
		vertex -18.0 -6.0 21.0
		vertex 18.0 -6.0 21.0
		vertex -18.0 6.0 21.0
	endloop
endfacet
facet normal 0 0 0
	outer loop
		vertex 18.0 -6.0 21.0
		vertex 18.0 6.0 21.0
		vertex -18.0 6.0 21.0
	endloop
endfacet
facet normal 0 0 0
	outer loop
		vertex -18.0 -6.0 0.0
		vertex 18.0 -6.0 0.0
		vertex -18.0 -6.0 21.0
	endloop
endfacet
facet normal 0 0 0
	outer loop
		vertex 18.0 -6.0 0.0
		vertex 18.0 -6.0 21.0
		vertex -18.0 -6.0 21.0
	endloop
endfacet
facet normal 0 0 0
	outer loop
		vertex -18.0 6.0 0.0
		vertex -18.0 6.0 21.0
		vertex 18.0 6.0 0.0
	endloop
endfacet
facet normal 0 0 0
	outer loop
		vertex 18.0 6.0 0.0
		vertex -18.0 6.0 21.0
		vertex 18.0 6.0 21.0
	endloop
endfacet
facet normal 0 0 0
	outer loop
		vertex -18.0 -6.0 0.0
		vertex -18.0 -6.0 21.0
		vertex -18.0 6.0 0.0
	endloop
endfacet
facet normal 0 0 0
	outer loop
		vertex -18.0 6.0 0.0
		vertex -18.0 -6.0 21.0
		vertex -18.0 6.0 21.0
	endloop
endfacet
facet normal 0 0 0
	outer loop
		vertex 18.0 6.0 0.0
		vertex 18.0 6.0 21.0
		vertex 18.0 -6.0 21.0
	endloop
endfacet
facet normal 0 0 0
	outer loop
		vertex 18.0 6.0 0.0
		vertex 18.0 -6.0 21.0
		vertex 18.0 -6.0 0.0
	endloop
endfacet
endsolid 
solid 
facet normal 0 0 0
	outer loop
		vertex -15.0 -3.0 21.0
		vertex -15.0 3.0 21.0
		vertex 15.0 -3.0 21.0
	endloop
endfacet
facet normal 0 0 0
	outer loop
		vertex -15.0 3.0 21.0
		vertex 15.0 3.0 21.0
		vertex 15.0 -3.0 21.0
	endloop
endfacet
facet normal 0 0 0
	outer loop
		vertex -15.0 -3.0 24.0
		vertex 15.0 -3.0 24.0
		vertex -15.0 3.0 24.0
	endloop
endfacet
facet normal 0 0 0
	outer loop
		vertex 15.0 -3.0 24.0
		vertex 15.0 3.0 24.0
		vertex -15.0 3.0 24.0
	endloop
endfacet
facet normal 0 0 0
	outer loop
		vertex -15.0 -3.0 21.0
		vertex 15.0 -3.0 21.0
		vertex -15.0 -3.0 24.0
	endloop
endfacet
facet normal 0 0 0
	outer loop
		vertex 15.0 -3.0 21.0
		vertex 15.0 -3.0 24.0
		vertex -15.0 -3.0 24.0
	endloop
endfacet
facet normal 0 0 0
	outer loop
		vertex -15.0 3.0 21.0
		vertex -15.0 3.0 24.0
		vertex 15.0 3.0 21.0
	endloop
endfacet
facet normal 0 0 0
	outer loop
		vertex 15.0 3.0 21.0
		vertex -15.0 3.0 24.0
		vertex 15.0 3.0 24.0
	endloop
endfacet
facet normal 0 0 0
	outer loop
		vertex -15.0 -3.0 21.0
		vertex -15.0 -3.0 24.0
		vertex -15.0 3.0 21.0
	endloop
endfacet
facet normal 0 0 0
	outer loop
		vertex -15.0 3.0 21.0
		vertex -15.0 -3.0 24.0
		vertex -15.0 3.0 24.0
	endloop
endfacet
facet normal 0 0 0
	outer loop
		vertex 15.0 3.0 21.0
		vertex 15.0 3.0 24.0
		vertex 15.0 -3.0 24.0
	endloop
endfacet
facet normal 0 0 0
	outer loop
		vertex 15.0 3.0 21.0
		vertex 15.0 -3.0 24.0
		vertex 15.0 -3.0 21.0
	endloop
endfacet
endsolid 
solid 
facet normal 0 0 0
	outer loop
		vertex -18.0 -6.0 23.75
		vertex -18.0 6.0 23.75
		vertex 18.0 -6.0 23.75
	endloop
endfacet
facet normal 0 0 0
	outer loop
		vertex -18.0 6.0 23.75
		vertex 18.0 6.0 23.75
		vertex 18.0 -6.0 23.75
	endloop
endfacet
facet normal 0 0 0
	outer loop
		vertex -18.0 -6.0 24.25
		vertex 18.0 -6.0 24.25
		vertex -18.0 6.0 24.25
	endloop
endfacet
facet normal 0 0 0
	outer loop
		vertex 18.0 -6.0 24.25
		vertex 18.0 6.0 24.25
		vertex -18.0 6.0 24.25
	endloop
endfacet
facet normal 0 0 0
	outer loop
		vertex -18.0 -6.0 23.75
		vertex 18.0 -6.0 23.75
		vertex -18.0 -6.0 24.25
	endloop
endfacet
facet normal 0 0 0
	outer loop
		vertex 18.0 -6.0 23.75
		vertex 18.0 -6.0 24.25
		vertex -18.0 -6.0 24.25
	endloop
endfacet
facet normal 0 0 0
	outer loop
		vertex -18.0 6.0 23.75
		vertex -18.0 6.0 24.25
		vertex 18.0 6.0 23.75
	endloop
endfacet
facet normal 0 0 0
	outer loop
		vertex 18.0 6.0 23.75
		vertex -18.0 6.0 24.25
		vertex 18.0 6.0 24.25
	endloop
endfacet
facet normal 0 0 0
	outer loop
		vertex -18.0 -6.0 23.75
		vertex -18.0 -6.0 24.25
		vertex -18.0 6.0 23.75
	endloop
endfacet
facet normal 0 0 0
	outer loop
		vertex -18.0 6.0 23.75
		vertex -18.0 -6.0 24.25
		vertex -18.0 6.0 24.25
	endloop
endfacet
facet normal 0 0 0
	outer loop
		vertex 18.0 6.0 23.75
		vertex 18.0 6.0 24.25
		vertex 18.0 -6.0 24.25
	endloop
endfacet
facet normal 0 0 0
	outer loop
		vertex 18.0 6.0 23.75
		vertex 18.0 -6.0 24.25
		vertex 18.0 -6.0 23.75
	endloop
endfacet
endsolid 
solid 
facet normal 0 0 0
	outer loop
		vertex -15.25 -8.0 3.0
		vertex -15.25 -4.0 3.0
		vertex -14.75 -8.0 3.0
	endloop
endfacet
facet normal 0 0 0
	outer loop
		vertex -15.25 -4.0 3.0
		vertex -14.75 -4.0 3.0
		vertex -14.75 -8.0 3.0
	endloop
endfacet
facet normal 0 0 0
	outer loop
		vertex -15.25 -8.0 18.0
		vertex -14.75 -8.0 18.0
		vertex -15.25 -4.0 18.0
	endloop
endfacet
facet normal 0 0 0
	outer loop
		vertex -14.75 -8.0 18.0
		vertex -14.75 -4.0 18.0
		vertex -15.25 -4.0 18.0
	endloop
endfacet
facet normal 0 0 0
	outer loop
		vertex -15.25 -8.0 3.0
		vertex -14.75 -8.0 3.0
		vertex -15.25 -8.0 18.0
	endloop
endfacet
facet normal 0 0 0
	outer loop
		vertex -14.75 -8.0 3.0
		vertex -14.75 -8.0 18.0
		vertex -15.25 -8.0 18.0
	endloop
endfacet
facet normal 0 0 0
	outer loop
		vertex -15.25 -4.0 3.0
		vertex -15.25 -4.0 18.0
		vertex -14.75 -4.0 3.0
	endloop
endfacet
facet normal 0 0 0
	outer loop
		vertex -14.75 -4.0 3.0
		vertex -15.25 -4.0 18.0
		vertex -14.75 -4.0 18.0
	endloop
endfacet
facet normal 0 0 0
	outer loop
		vertex -15.25 -8.0 3.0
		vertex -15.25 -8.0 18.0
		vertex -15.25 -4.0 3.0
	endloop
endfacet
facet normal 0 0 0
	outer loop
		vertex -15.25 -4.0 3.0
		vertex -15.25 -8.0 18.0
		vertex -15.25 -4.0 18.0
	endloop
endfacet
facet normal 0 0 0
	outer loop
		vertex -14.75 -4.0 3.0
		vertex -14.75 -4.0 18.0
		vertex -14.75 -8.0 18.0
	endloop
endfacet
facet normal 0 0 0
	outer loop
		vertex -14.75 -4.0 3.0
		vertex -14.75 -8.0 18.0
		vertex -14.75 -8.0 3.0
	endloop
endfacet
endsolid 
solid 
facet normal 0 0 0
	outer loop
		vertex -10.25 -8.0 3.0
		vertex -10.25 -4.0 3.0
		vertex -9.75 -8.0 3.0
	endloop
endfacet
facet normal 0 0 0
	outer loop
		vertex -10.25 -4.0 3.0
		vertex -9.75 -4.0 3.0
		vertex -9.75 -8.0 3.0
	endloop
endfacet
facet normal 0 0 0
	outer loop
		vertex -10.25 -8.0 18.0
		vertex -9.75 -8.0 18.0
		vertex -10.25 -4.0 18.0
	endloop
endfacet
facet normal 0 0 0
	outer loop
		vertex -9.75 -8.0 18.0
		vertex -9.75 -4.0 18.0
		vertex -10.25 -4.0 18.0
	endloop
endfacet
facet normal 0 0 0
	outer loop
		vertex -10.25 -8.0 3.0
		vertex -9.75 -8.0 3.0
		vertex -10.25 -8.0 18.0
	endloop
endfacet
facet normal 0 0 0
	outer loop
		vertex -9.75 -8.0 3.0
		vertex -9.75 -8.0 18.0
		vertex -10.25 -8.0 18.0
	endloop
endfacet
facet normal 0 0 0
	outer loop
		vertex -10.25 -4.0 3.0
		vertex -10.25 -4.0 18.0
		vertex -9.75 -4.0 3.0
	endloop
endfacet
facet normal 0 0 0
	outer loop
		vertex -9.75 -4.0 3.0
		vertex -10.25 -4.0 18.0
		vertex -9.75 -4.0 18.0
	endloop
endfacet
facet normal 0 0 0
	outer loop
		vertex -10.25 -8.0 3.0
		vertex -10.25 -8.0 18.0
		vertex -10.25 -4.0 3.0
	endloop
endfacet
facet normal 0 0 0
	outer loop
		vertex -10.25 -4.0 3.0
		vertex -10.25 -8.0 18.0
		vertex -10.25 -4.0 18.0
	endloop
endfacet
facet normal 0 0 0
	outer loop
		vertex -9.75 -4.0 3.0
		vertex -9.75 -4.0 18.0
		vertex -9.75 -8.0 18.0
	endloop
endfacet
facet normal 0 0 0
	outer loop
		vertex -9.75 -4.0 3.0
		vertex -9.75 -8.0 18.0
		vertex -9.75 -8.0 3.0
	endloop
endfacet
endsolid 
solid 
facet normal 0 0 0
	outer loop
		vertex -5.25 -8.0 3.0
		vertex -5.25 -4.0 3.0
		vertex -4.75 -8.0 3.0
	endloop
endfacet
facet normal 0 0 0
	outer loop
		vertex -5.25 -4.0 3.0
		vertex -4.75 -4.0 3.0
		vertex -4.75 -8.0 3.0
	endloop
endfacet
facet normal 0 0 0
	outer loop
		vertex -5.25 -8.0 18.0
		vertex -4.75 -8.0 18.0
		vertex -5.25 -4.0 18.0
	endloop
endfacet
facet normal 0 0 0
	outer loop
		vertex -4.75 -8.0 18.0
		vertex -4.75 -4.0 18.0
		vertex -5.25 -4.0 18.0
	endloop
endfacet
facet normal 0 0 0
	outer loop
		vertex -5.25 -8.0 3.0
		vertex -4.75 -8.0 3.0
		vertex -5.25 -8.0 18.0
	endloop
endfacet
facet normal 0 0 0
	outer loop
		vertex -4.75 -8.0 3.0
		vertex -4.75 -8.0 18.0
		vertex -5.25 -8.0 18.0
	endloop
endfacet
facet normal 0 0 0
	outer loop
		vertex -5.25 -4.0 3.0
		vertex -5.25 -4.0 18.0
		vertex -4.75 -4.0 3.0
	endloop
endfacet
facet normal 0 0 0
	outer loop
		vertex -4.75 -4.0 3.0
		vertex -5.25 -4.0 18.0
		vertex -4.75 -4.0 18.0
	endloop
endfacet
facet normal 0 0 0
	outer loop
		vertex -5.25 -8.0 3.0
		vertex -5.25 -8.0 18.0
		vertex -5.25 -4.0 3.0
	endloop
endfacet
facet normal 0 0 0
	outer loop
		vertex -5.25 -4.0 3.0
		vertex -5.25 -8.0 18.0
		vertex -5.25 -4.0 18.0
	endloop
endfacet
facet normal 0 0 0
	outer loop
		vertex -4.75 -4.0 3.0
		vertex -4.75 -4.0 18.0
		vertex -4.75 -8.0 18.0
	endloop
endfacet
facet normal 0 0 0
	outer loop
		vertex -4.75 -4.0 3.0
		vertex -4.75 -8.0 18.0
		vertex -4.75 -8.0 3.0
	endloop
endfacet
endsolid 
solid 
facet normal 0 0 0
	outer loop
		vertex -0.25 -8.0 3.0
		vertex -0.25 -4.0 3.0
		vertex 0.25 -8.0 3.0
	endloop
endfacet
facet normal 0 0 0
	outer loop
		vertex -0.25 -4.0 3.0
		vertex 0.25 -4.0 3.0
		vertex 0.25 -8.0 3.0
	endloop
endfacet
facet normal 0 0 0
	outer loop
		vertex -0.25 -8.0 18.0
		vertex 0.25 -8.0 18.0
		vertex -0.25 -4.0 18.0
	endloop
endfacet
facet normal 0 0 0
	outer loop
		vertex 0.25 -8.0 18.0
		vertex 0.25 -4.0 18.0
		vertex -0.25 -4.0 18.0
	endloop
endfacet
facet normal 0 0 0
	outer loop
		vertex -0.25 -8.0 3.0
		vertex 0.25 -8.0 3.0
		vertex -0.25 -8.0 18.0
	endloop
endfacet
facet normal 0 0 0
	outer loop
		vertex 0.25 -8.0 3.0
		vertex 0.25 -8.0 18.0
		vertex -0.25 -8.0 18.0
	endloop
endfacet
facet normal 0 0 0
	outer loop
		vertex -0.25 -4.0 3.0
		vertex -0.25 -4.0 18.0
		vertex 0.25 -4.0 3.0
	endloop
endfacet
facet normal 0 0 0
	outer loop
		vertex 0.25 -4.0 3.0
		vertex -0.25 -4.0 18.0
		vertex 0.25 -4.0 18.0
	endloop
endfacet
facet normal 0 0 0
	outer loop
		vertex -0.25 -8.0 3.0
		vertex -0.25 -8.0 18.0
		vertex -0.25 -4.0 3.0
	endloop
endfacet
facet normal 0 0 0
	outer loop
		vertex -0.25 -4.0 3.0
		vertex -0.25 -8.0 18.0
		vertex -0.25 -4.0 18.0
	endloop
endfacet
facet normal 0 0 0
	outer loop
		vertex 0.25 -4.0 3.0
		vertex 0.25 -4.0 18.0
		vertex 0.25 -8.0 18.0
	endloop
endfacet
facet normal 0 0 0
	outer loop
		vertex 0.25 -4.0 3.0
		vertex 0.25 -8.0 18.0
		vertex 0.25 -8.0 3.0
	endloop
endfacet
endsolid 
solid 
facet normal 0 0 0
	outer loop
		vertex 4.75 -8.0 3.0
		vertex 4.75 -4.0 3.0
		vertex 5.25 -8.0 3.0
	endloop
endfacet
facet normal 0 0 0
	outer loop
		vertex 4.75 -4.0 3.0
		vertex 5.25 -4.0 3.0
		vertex 5.25 -8.0 3.0
	endloop
endfacet
facet normal 0 0 0
	outer loop
		vertex 4.75 -8.0 18.0
		vertex 5.25 -8.0 18.0
		vertex 4.75 -4.0 18.0
	endloop
endfacet
facet normal 0 0 0
	outer loop
		vertex 5.25 -8.0 18.0
		vertex 5.25 -4.0 18.0
		vertex 4.75 -4.0 18.0
	endloop
endfacet
facet normal 0 0 0
	outer loop
		vertex 4.75 -8.0 3.0
		vertex 5.25 -8.0 3.0
		vertex 4.75 -8.0 18.0
	endloop
endfacet
facet normal 0 0 0
	outer loop
		vertex 5.25 -8.0 3.0
		vertex 5.25 -8.0 18.0
		vertex 4.75 -8.0 18.0
	endloop
endfacet
facet normal 0 0 0
	outer loop
		vertex 4.75 -4.0 3.0
		vertex 4.75 -4.0 18.0
		vertex 5.25 -4.0 3.0
	endloop
endfacet
facet normal 0 0 0
	outer loop
		vertex 5.25 -4.0 3.0
		vertex 4.75 -4.0 18.0
		vertex 5.25 -4.0 18.0
	endloop
endfacet
facet normal 0 0 0
	outer loop
		vertex 4.75 -8.0 3.0
		vertex 4.75 -8.0 18.0
		vertex 4.75 -4.0 3.0
	endloop
endfacet
facet normal 0 0 0
	outer loop
		vertex 4.75 -4.0 3.0
		vertex 4.75 -8.0 18.0
		vertex 4.75 -4.0 18.0
	endloop
endfacet
facet normal 0 0 0
	outer loop
		vertex 5.25 -4.0 3.0
		vertex 5.25 -4.0 18.0
		vertex 5.25 -8.0 18.0
	endloop
endfacet
facet normal 0 0 0
	outer loop
		vertex 5.25 -4.0 3.0
		vertex 5.25 -8.0 18.0
		vertex 5.25 -8.0 3.0
	endloop
endfacet
endsolid 
solid 
facet normal 0 0 0
	outer loop
		vertex 9.75 -8.0 3.0
		vertex 9.75 -4.0 3.0
		vertex 10.25 -8.0 3.0
	endloop
endfacet
facet normal 0 0 0
	outer loop
		vertex 9.75 -4.0 3.0
		vertex 10.25 -4.0 3.0
		vertex 10.25 -8.0 3.0
	endloop
endfacet
facet normal 0 0 0
	outer loop
		vertex 9.75 -8.0 18.0
		vertex 10.25 -8.0 18.0
		vertex 9.75 -4.0 18.0
	endloop
endfacet
facet normal 0 0 0
	outer loop
		vertex 10.25 -8.0 18.0
		vertex 10.25 -4.0 18.0
		vertex 9.75 -4.0 18.0
	endloop
endfacet
facet normal 0 0 0
	outer loop
		vertex 9.75 -8.0 3.0
		vertex 10.25 -8.0 3.0
		vertex 9.75 -8.0 18.0
	endloop
endfacet
facet normal 0 0 0
	outer loop
		vertex 10.25 -8.0 3.0
		vertex 10.25 -8.0 18.0
		vertex 9.75 -8.0 18.0
	endloop
endfacet
facet normal 0 0 0
	outer loop
		vertex 9.75 -4.0 3.0
		vertex 9.75 -4.0 18.0
		vertex 10.25 -4.0 3.0
	endloop
endfacet
facet normal 0 0 0
	outer loop
		vertex 10.25 -4.0 3.0
		vertex 9.75 -4.0 18.0
		vertex 10.25 -4.0 18.0
	endloop
endfacet
facet normal 0 0 0
	outer loop
		vertex 9.75 -8.0 3.0
		vertex 9.75 -8.0 18.0
		vertex 9.75 -4.0 3.0
	endloop
endfacet
facet normal 0 0 0
	outer loop
		vertex 9.75 -4.0 3.0
		vertex 9.75 -8.0 18.0
		vertex 9.75 -4.0 18.0
	endloop
endfacet
facet normal 0 0 0
	outer loop
		vertex 10.25 -4.0 3.0
		vertex 10.25 -4.0 18.0
		vertex 10.25 -8.0 18.0
	endloop
endfacet
facet normal 0 0 0
	outer loop
		vertex 10.25 -4.0 3.0
		vertex 10.25 -8.0 18.0
		vertex 10.25 -8.0 3.0
	endloop
endfacet
endsolid 
solid 
facet normal 0 0 0
	outer loop
		vertex 14.75 -8.0 3.0
		vertex 14.75 -4.0 3.0
		vertex 15.25 -8.0 3.0
	endloop
endfacet
facet normal 0 0 0
	outer loop
		vertex 14.75 -4.0 3.0
		vertex 15.25 -4.0 3.0
		vertex 15.25 -8.0 3.0
	endloop
endfacet
facet normal 0 0 0
	outer loop
		vertex 14.75 -8.0 18.0
		vertex 15.25 -8.0 18.0
		vertex 14.75 -4.0 18.0
	endloop
endfacet
facet normal 0 0 0
	outer loop
		vertex 15.25 -8.0 18.0
		vertex 15.25 -4.0 18.0
		vertex 14.75 -4.0 18.0
	endloop
endfacet
facet normal 0 0 0
	outer loop
		vertex 14.75 -8.0 3.0
		vertex 15.25 -8.0 3.0
		vertex 14.75 -8.0 18.0
	endloop
endfacet
facet normal 0 0 0
	outer loop
		vertex 15.25 -8.0 3.0
		vertex 15.25 -8.0 18.0
		vertex 14.75 -8.0 18.0
	endloop
endfacet
facet normal 0 0 0
	outer loop
		vertex 14.75 -4.0 3.0
		vertex 14.75 -4.0 18.0
		vertex 15.25 -4.0 3.0
	endloop
endfacet
facet normal 0 0 0
	outer loop
		vertex 15.25 -4.0 3.0
		vertex 14.75 -4.0 18.0
		vertex 15.25 -4.0 18.0
	endloop
endfacet
facet normal 0 0 0
	outer loop
		vertex 14.75 -8.0 3.0
		vertex 14.75 -8.0 18.0
		vertex 14.75 -4.0 3.0
	endloop
endfacet
facet normal 0 0 0
	outer loop
		vertex 14.75 -4.0 3.0
		vertex 14.75 -8.0 18.0
		vertex 14.75 -4.0 18.0
	endloop
endfacet
facet normal 0 0 0
	outer loop
		vertex 15.25 -4.0 3.0
		vertex 15.25 -4.0 18.0
		vertex 15.25 -8.0 18.0
	endloop
endfacet
facet normal 0 0 0
	outer loop
		vertex 15.25 -4.0 3.0
		vertex 15.25 -8.0 18.0
		vertex 15.25 -8.0 3.0
	endloop
endfacet
endsolid 
solid 
facet normal 0 0 0
	outer loop
		vertex -15.0 -8.0 2.75
		vertex -15.0 -4.0 2.75
		vertex 15.0 -8.0 2.75
	endloop
endfacet
facet normal 0 0 0
	outer loop
		vertex -15.0 -4.0 2.75
		vertex 15.0 -4.0 2.75
		vertex 15.0 -8.0 2.75
	endloop
endfacet
facet normal 0 0 0
	outer loop
		vertex -15.0 -8.0 3.25
		vertex 15.0 -8.0 3.25
		vertex -15.0 -4.0 3.25
	endloop
endfacet
facet normal 0 0 0
	outer loop
		vertex 15.0 -8.0 3.25
		vertex 15.0 -4.0 3.25
		vertex -15.0 -4.0 3.25
	endloop
endfacet
facet normal 0 0 0
	outer loop
		vertex -15.0 -8.0 2.75
		vertex 15.0 -8.0 2.75
		vertex -15.0 -8.0 3.25
	endloop
endfacet
facet normal 0 0 0
	outer loop
		vertex 15.0 -8.0 2.75
		vertex 15.0 -8.0 3.25
		vertex -15.0 -8.0 3.25
	endloop
endfacet
facet normal 0 0 0
	outer loop
		vertex -15.0 -4.0 2.75
		vertex -15.0 -4.0 3.25
		vertex 15.0 -4.0 2.75
	endloop
endfacet
facet normal 0 0 0
	outer loop
		vertex 15.0 -4.0 2.75
		vertex -15.0 -4.0 3.25
		vertex 15.0 -4.0 3.25
	endloop
endfacet
facet normal 0 0 0
	outer loop
		vertex -15.0 -8.0 2.75
		vertex -15.0 -8.0 3.25
		vertex -15.0 -4.0 2.75
	endloop
endfacet
facet normal 0 0 0
	outer loop
		vertex -15.0 -4.0 2.75
		vertex -15.0 -8.0 3.25
		vertex -15.0 -4.0 3.25
	endloop
endfacet
facet normal 0 0 0
	outer loop
		vertex 15.0 -4.0 2.75
		vertex 15.0 -4.0 3.25
		vertex 15.0 -8.0 3.25
	endloop
endfacet
facet normal 0 0 0
	outer loop
		vertex 15.0 -4.0 2.75
		vertex 15.0 -8.0 3.25
		vertex 15.0 -8.0 2.75
	endloop
endfacet
endsolid 
solid 
facet normal 0 0 0
	outer loop
		vertex -15.0 -8.0 5.75
		vertex -15.0 -4.0 5.75
		vertex 15.0 -8.0 5.75
	endloop
endfacet
facet normal 0 0 0
	outer loop
		vertex -15.0 -4.0 5.75
		vertex 15.0 -4.0 5.75
		vertex 15.0 -8.0 5.75
	endloop
endfacet
facet normal 0 0 0
	outer loop
		vertex -15.0 -8.0 6.25
		vertex 15.0 -8.0 6.25
		vertex -15.0 -4.0 6.25
	endloop
endfacet
facet normal 0 0 0
	outer loop
		vertex 15.0 -8.0 6.25
		vertex 15.0 -4.0 6.25
		vertex -15.0 -4.0 6.25
	endloop
endfacet
facet normal 0 0 0
	outer loop
		vertex -15.0 -8.0 5.75
		vertex 15.0 -8.0 5.75
		vertex -15.0 -8.0 6.25
	endloop
endfacet
facet normal 0 0 0
	outer loop
		vertex 15.0 -8.0 5.75
		vertex 15.0 -8.0 6.25
		vertex -15.0 -8.0 6.25
	endloop
endfacet
facet normal 0 0 0
	outer loop
		vertex -15.0 -4.0 5.75
		vertex -15.0 -4.0 6.25
		vertex 15.0 -4.0 5.75
	endloop
endfacet
facet normal 0 0 0
	outer loop
		vertex 15.0 -4.0 5.75
		vertex -15.0 -4.0 6.25
		vertex 15.0 -4.0 6.25
	endloop
endfacet
facet normal 0 0 0
	outer loop
		vertex -15.0 -8.0 5.75
		vertex -15.0 -8.0 6.25
		vertex -15.0 -4.0 5.75
	endloop
endfacet
facet normal 0 0 0
	outer loop
		vertex -15.0 -4.0 5.75
		vertex -15.0 -8.0 6.25
		vertex -15.0 -4.0 6.25
	endloop
endfacet
facet normal 0 0 0
	outer loop
		vertex 15.0 -4.0 5.75
		vertex 15.0 -4.0 6.25
		vertex 15.0 -8.0 6.25
	endloop
endfacet
facet normal 0 0 0
	outer loop
		vertex 15.0 -4.0 5.75
		vertex 15.0 -8.0 6.25
		vertex 15.0 -8.0 5.75
	endloop
endfacet
endsolid 
solid 
facet normal 0 0 0
	outer loop
		vertex -15.0 -8.0 8.75
		vertex -15.0 -4.0 8.75
		vertex 15.0 -8.0 8.75
	endloop
endfacet
facet normal 0 0 0
	outer loop
		vertex -15.0 -4.0 8.75
		vertex 15.0 -4.0 8.75
		vertex 15.0 -8.0 8.75
	endloop
endfacet
facet normal 0 0 0
	outer loop
		vertex -15.0 -8.0 9.25
		vertex 15.0 -8.0 9.25
		vertex -15.0 -4.0 9.25
	endloop
endfacet
facet normal 0 0 0
	outer loop
		vertex 15.0 -8.0 9.25
		vertex 15.0 -4.0 9.25
		vertex -15.0 -4.0 9.25
	endloop
endfacet
facet normal 0 0 0
	outer loop
		vertex -15.0 -8.0 8.75
		vertex 15.0 -8.0 8.75
		vertex -15.0 -8.0 9.25
	endloop
endfacet
facet normal 0 0 0
	outer loop
		vertex 15.0 -8.0 8.75
		vertex 15.0 -8.0 9.25
		vertex -15.0 -8.0 9.25
	endloop
endfacet
facet normal 0 0 0
	outer loop
		vertex -15.0 -4.0 8.75
		vertex -15.0 -4.0 9.25
		vertex 15.0 -4.0 8.75
	endloop
endfacet
facet normal 0 0 0
	outer loop
		vertex 15.0 -4.0 8.75
		vertex -15.0 -4.0 9.25
		vertex 15.0 -4.0 9.25
	endloop
endfacet
facet normal 0 0 0
	outer loop
		vertex -15.0 -8.0 8.75
		vertex -15.0 -8.0 9.25
		vertex -15.0 -4.0 8.75
	endloop
endfacet
facet normal 0 0 0
	outer loop
		vertex -15.0 -4.0 8.75
		vertex -15.0 -8.0 9.25
		vertex -15.0 -4.0 9.25
	endloop
endfacet
facet normal 0 0 0
	outer loop
		vertex 15.0 -4.0 8.75
		vertex 15.0 -4.0 9.25
		vertex 15.0 -8.0 9.25
	endloop
endfacet
facet normal 0 0 0
	outer loop
		vertex 15.0 -4.0 8.75
		vertex 15.0 -8.0 9.25
		vertex 15.0 -8.0 8.75
	endloop
endfacet
endsolid 
solid 
facet normal 0 0 0
	outer loop
		vertex -15.0 -8.0 11.75
		vertex -15.0 -4.0 11.75
		vertex 15.0 -8.0 11.75
	endloop
endfacet
facet normal 0 0 0
	outer loop
		vertex -15.0 -4.0 11.75
		vertex 15.0 -4.0 11.75
		vertex 15.0 -8.0 11.75
	endloop
endfacet
facet normal 0 0 0
	outer loop
		vertex -15.0 -8.0 12.25
		vertex 15.0 -8.0 12.25
		vertex -15.0 -4.0 12.25
	endloop
endfacet
facet normal 0 0 0
	outer loop
		vertex 15.0 -8.0 12.25
		vertex 15.0 -4.0 12.25
		vertex -15.0 -4.0 12.25
	endloop
endfacet
facet normal 0 0 0
	outer loop
		vertex -15.0 -8.0 11.75
		vertex 15.0 -8.0 11.75
		vertex -15.0 -8.0 12.25
	endloop
endfacet
facet normal 0 0 0
	outer loop
		vertex 15.0 -8.0 11.75
		vertex 15.0 -8.0 12.25
		vertex -15.0 -8.0 12.25
	endloop
endfacet
facet normal 0 0 0
	outer loop
		vertex -15.0 -4.0 11.75
		vertex -15.0 -4.0 12.25
		vertex 15.0 -4.0 11.75
	endloop
endfacet
facet normal 0 0 0
	outer loop
		vertex 15.0 -4.0 11.75
		vertex -15.0 -4.0 12.25
		vertex 15.0 -4.0 12.25
	endloop
endfacet
facet normal 0 0 0
	outer loop
		vertex -15.0 -8.0 11.75
		vertex -15.0 -8.0 12.25
		vertex -15.0 -4.0 11.75
	endloop
endfacet
facet normal 0 0 0
	outer loop
		vertex -15.0 -4.0 11.75
		vertex -15.0 -8.0 12.25
		vertex -15.0 -4.0 12.25
	endloop
endfacet
facet normal 0 0 0
	outer loop
		vertex 15.0 -4.0 11.75
		vertex 15.0 -4.0 12.25
		vertex 15.0 -8.0 12.25
	endloop
endfacet
facet normal 0 0 0
	outer loop
		vertex 15.0 -4.0 11.75
		vertex 15.0 -8.0 12.25
		vertex 15.0 -8.0 11.75
	endloop
endfacet
endsolid 
solid 
facet normal 0 0 0
	outer loop
		vertex -15.0 -8.0 14.75
		vertex -15.0 -4.0 14.75
		vertex 15.0 -8.0 14.75
	endloop
endfacet
facet normal 0 0 0
	outer loop
		vertex -15.0 -4.0 14.75
		vertex 15.0 -4.0 14.75
		vertex 15.0 -8.0 14.75
	endloop
endfacet
facet normal 0 0 0
	outer loop
		vertex -15.0 -8.0 15.25
		vertex 15.0 -8.0 15.25
		vertex -15.0 -4.0 15.25
	endloop
endfacet
facet normal 0 0 0
	outer loop
		vertex 15.0 -8.0 15.25
		vertex 15.0 -4.0 15.25
		vertex -15.0 -4.0 15.25
	endloop
endfacet
facet normal 0 0 0
	outer loop
		vertex -15.0 -8.0 14.75
		vertex 15.0 -8.0 14.75
		vertex -15.0 -8.0 15.25
	endloop
endfacet
facet normal 0 0 0
	outer loop
		vertex 15.0 -8.0 14.75
		vertex 15.0 -8.0 15.25
		vertex -15.0 -8.0 15.25
	endloop
endfacet
facet normal 0 0 0
	outer loop
		vertex -15.0 -4.0 14.75
		vertex -15.0 -4.0 15.25
		vertex 15.0 -4.0 14.75
	endloop
endfacet
facet normal 0 0 0
	outer loop
		vertex 15.0 -4.0 14.75
		vertex -15.0 -4.0 15.25
		vertex 15.0 -4.0 15.25
	endloop
endfacet
facet normal 0 0 0
	outer loop
		vertex -15.0 -8.0 14.75
		vertex -15.0 -8.0 15.25
		vertex -15.0 -4.0 14.75
	endloop
endfacet
facet normal 0 0 0
	outer loop
		vertex -15.0 -4.0 14.75
		vertex -15.0 -8.0 15.25
		vertex -15.0 -4.0 15.25
	endloop
endfacet
facet normal 0 0 0
	outer loop
		vertex 15.0 -4.0 14.75
		vertex 15.0 -4.0 15.25
		vertex 15.0 -8.0 15.25
	endloop
endfacet
facet normal 0 0 0
	outer loop
		vertex 15.0 -4.0 14.75
		vertex 15.0 -8.0 15.25
		vertex 15.0 -8.0 14.75
	endloop
endfacet
endsolid 
solid 
facet normal 0 0 0
	outer loop
		vertex -15.0 -8.0 17.75
		vertex -15.0 -4.0 17.75
		vertex 15.0 -8.0 17.75
	endloop
endfacet
facet normal 0 0 0
	outer loop
		vertex -15.0 -4.0 17.75
		vertex 15.0 -4.0 17.75
		vertex 15.0 -8.0 17.75
	endloop
endfacet
facet normal 0 0 0
	outer loop
		vertex -15.0 -8.0 18.25
		vertex 15.0 -8.0 18.25
		vertex -15.0 -4.0 18.25
	endloop
endfacet
facet normal 0 0 0
	outer loop
		vertex 15.0 -8.0 18.25
		vertex 15.0 -4.0 18.25
		vertex -15.0 -4.0 18.25
	endloop
endfacet
facet normal 0 0 0
	outer loop
		vertex -15.0 -8.0 17.75
		vertex 15.0 -8.0 17.75
		vertex -15.0 -8.0 18.25
	endloop
endfacet
facet normal 0 0 0
	outer loop
		vertex 15.0 -8.0 17.75
		vertex 15.0 -8.0 18.25
		vertex -15.0 -8.0 18.25
	endloop
endfacet
facet normal 0 0 0
	outer loop
		vertex -15.0 -4.0 17.75
		vertex -15.0 -4.0 18.25
		vertex 15.0 -4.0 17.75
	endloop
endfacet
facet normal 0 0 0
	outer loop
		vertex 15.0 -4.0 17.75
		vertex -15.0 -4.0 18.25
		vertex 15.0 -4.0 18.25
	endloop
endfacet
facet normal 0 0 0
	outer loop
		vertex -15.0 -8.0 17.75
		vertex -15.0 -8.0 18.25
		vertex -15.0 -4.0 17.75
	endloop
endfacet
facet normal 0 0 0
	outer loop
		vertex -15.0 -4.0 17.75
		vertex -15.0 -8.0 18.25
		vertex -15.0 -4.0 18.25
	endloop
endfacet
facet normal 0 0 0
	outer loop
		vertex 15.0 -4.0 17.75
		vertex 15.0 -4.0 18.25
		vertex 15.0 -8.0 18.25
	endloop
endfacet
facet normal 0 0 0
	outer loop
		vertex 15.0 -4.0 17.75
		vertex 15.0 -8.0 18.25
		vertex 15.0 -8.0 17.75
	endloop
endfacet
endsolid 
solid 
facet normal 0 0 0
	outer loop
		vertex -10.5 3.0 0.0
		vertex -10.5 9.0 0.0
		vertex -4.5 3.0 0.0
	endloop
endfacet
facet normal 0 0 0
	outer loop
		vertex -10.5 9.0 0.0
		vertex -4.5 9.0 0.0
		vertex -4.5 3.0 0.0
	endloop
endfacet
facet normal 0 0 0
	outer loop
		vertex -10.5 3.0 21.0
		vertex -4.5 3.0 21.0
		vertex -10.5 9.0 21.0
	endloop
endfacet
facet normal 0 0 0
	outer loop
		vertex -4.5 3.0 21.0
		vertex -4.5 9.0 21.0
		vertex -10.5 9.0 21.0
	endloop
endfacet
facet normal 0 0 0
	outer loop
		vertex -10.5 3.0 0.0
		vertex -4.5 3.0 0.0
		vertex -10.5 3.0 21.0
	endloop
endfacet
facet normal 0 0 0
	outer loop
		vertex -4.5 3.0 0.0
		vertex -4.5 3.0 21.0
		vertex -10.5 3.0 21.0
	endloop
endfacet
facet normal 0 0 0
	outer loop
		vertex -10.5 9.0 0.0
		vertex -10.5 9.0 21.0
		vertex -4.5 9.0 0.0
	endloop
endfacet
facet normal 0 0 0
	outer loop
		vertex -4.5 9.0 0.0
		vertex -10.5 9.0 21.0
		vertex -4.5 9.0 21.0
	endloop
endfacet
facet normal 0 0 0
	outer loop
		vertex -10.5 3.0 0.0
		vertex -10.5 3.0 21.0
		vertex -10.5 9.0 0.0
	endloop
endfacet
facet normal 0 0 0
	outer loop
		vertex -10.5 9.0 0.0
		vertex -10.5 3.0 21.0
		vertex -10.5 9.0 21.0
	endloop
endfacet
facet normal 0 0 0
	outer loop
		vertex -4.5 9.0 0.0
		vertex -4.5 9.0 21.0
		vertex -4.5 3.0 21.0
	endloop
endfacet
facet normal 0 0 0
	outer loop
		vertex -4.5 9.0 0.0
		vertex -4.5 3.0 21.0
		vertex -4.5 3.0 0.0
	endloop
endfacet
endsolid 
solid 
facet normal 0 0 0
	outer loop
		vertex 4.5 3.0 0.0
		vertex 4.5 9.0 0.0
		vertex 10.5 3.0 0.0
	endloop
endfacet
facet normal 0 0 0
	outer loop
		vertex 4.5 9.0 0.0
		vertex 10.5 9.0 0.0
		vertex 10.5 3.0 0.0
	endloop
endfacet
facet normal 0 0 0
	outer loop
		vertex 4.5 3.0 21.0
		vertex 10.5 3.0 21.0
		vertex 4.5 9.0 21.0
	endloop
endfacet
facet normal 0 0 0
	outer loop
		vertex 10.5 3.0 21.0
		vertex 10.5 9.0 21.0
		vertex 4.5 9.0 21.0
	endloop
endfacet
facet normal 0 0 0
	outer loop
		vertex 4.5 3.0 0.0
		vertex 10.5 3.0 0.0
		vertex 4.5 3.0 21.0
	endloop
endfacet
facet normal 0 0 0
	outer loop
		vertex 10.5 3.0 0.0
		vertex 10.5 3.0 21.0
		vertex 4.5 3.0 21.0
	endloop
endfacet
facet normal 0 0 0
	outer loop
		vertex 4.5 9.0 0.0
		vertex 4.5 9.0 21.0
		vertex 10.5 9.0 0.0
	endloop
endfacet
facet normal 0 0 0
	outer loop
		vertex 10.5 9.0 0.0
		vertex 4.5 9.0 21.0
		vertex 10.5 9.0 21.0
	endloop
endfacet
facet normal 0 0 0
	outer loop
		vertex 4.5 3.0 0.0
		vertex 4.5 3.0 21.0
		vertex 4.5 9.0 0.0
	endloop
endfacet
facet normal 0 0 0
	outer loop
		vertex 4.5 9.0 0.0
		vertex 4.5 3.0 21.0
		vertex 4.5 9.0 21.0
	endloop
endfacet
facet normal 0 0 0
	outer loop
		vertex 10.5 9.0 0.0
		vertex 10.5 9.0 21.0
		vertex 10.5 3.0 21.0
	endloop
endfacet
facet normal 0 0 0
	outer loop
		vertex 10.5 9.0 0.0
		vertex 10.5 3.0 21.0
		vertex 10.5 3.0 0.0
	endloop
endfacet
endsolid 
