solid 
facet normal 0 0 0
	outer loop
		vertex -4.0 -9.0 0.0
		vertex -4.0 9.0 0.0
		vertex 4.0 -9.0 0.0
	endloop
endfacet
facet normal 0 0 0
	outer loop
		vertex -4.0 9.0 0.0
		vertex 4.0 9.0 0.0
		vertex 4.0 -9.0 0.0
	endloop
endfacet
facet normal 0 0 0
	outer loop
		vertex -4.0 -9.0 36.0
		vertex 4.0 -9.0 36.0
		vertex -4.0 9.0 36.0
	endloop
endfacet
facet normal 0 0 0
	outer loop
		vertex 4.0 -9.0 36.0
		vertex 4.0 9.0 36.0
		vertex -4.0 9.0 36.0
	endloop
endfacet
facet normal 0 0 0
	outer loop
		vertex -4.0 -9.0 0.0
		vertex 4.0 -9.0 0.0
		vertex -4.0 -9.0 36.0
	endloop
endfacet
facet normal 0 0 0
	outer loop
		vertex 4.0 -9.0 0.0
		vertex 4.0 -9.0 36.0
		vertex -4.0 -9.0 36.0
	endloop
endfacet
facet normal 0 0 0
	outer loop
		vertex -4.0 9.0 0.0
		vertex -4.0 9.0 36.0
		vertex 4.0 9.0 0.0
	endloop
endfacet
facet normal 0 0 0
	outer loop
		vertex 4.0 9.0 0.0
		vertex -4.0 9.0 36.0
		vertex 4.0 9.0 36.0
	endloop
endfacet
facet normal 0 0 0
	outer loop
		vertex -4.0 -9.0 0.0
		vertex -4.0 -9.0 36.0
		vertex -4.0 9.0 0.0
	endloop
endfacet
facet normal 0 0 0
	outer loop
		vertex -4.0 9.0 0.0
		vertex -4.0 -9.0 36.0
		vertex -4.0 9.0 36.0
	endloop
endfacet
facet normal 0 0 0
	outer loop
		vertex 4.0 9.0 0.0
		vertex 4.0 9.0 36.0
		vertex 4.0 -9.0 36.0
	endloop
endfacet
facet normal 0 0 0
	outer loop
		vertex 4.0 9.0 0.0
		vertex 4.0 -9.0 36.0
		vertex 4.0 -9.0 0.0
	endloop
endfacet
endsolid 
solid 
facet normal 0 0 0
	outer loop
		vertex -9.0 -4.0 0.0
		vertex -9.0 4.0 0.0
		vertex 9.0 -4.0 0.0
	endloop
endfacet
facet normal 0 0 0
	outer loop
		vertex -9.0 4.0 0.0
		vertex 9.0 4.0 0.0
		vertex 9.0 -4.0 0.0
	endloop
endfacet
facet normal 0 0 0
	outer loop
		vertex -9.0 -4.0 36.0
		vertex 9.0 -4.0 36.0
		vertex -9.0 4.0 36.0
	endloop
endfacet
facet normal 0 0 0
	outer loop
		vertex 9.0 -4.0 36.0
		vertex 9.0 4.0 36.0
		vertex -9.0 4.0 36.0
	endloop
endfacet
facet normal 0 0 0
	outer loop
		vertex -9.0 -4.0 0.0
		vertex 9.0 -4.0 0.0
		vertex -9.0 -4.0 36.0
	endloop
endfacet
facet normal 0 0 0
	outer loop
		vertex 9.0 -4.0 0.0
		vertex 9.0 -4.0 36.0
		vertex -9.0 -4.0 36.0
	endloop
endfacet
facet normal 0 0 0
	outer loop
		vertex -9.0 4.0 0.0
		vertex -9.0 4.0 36.0
		vertex 9.0 4.0 0.0
	endloop
endfacet
facet normal 0 0 0
	outer loop
		vertex 9.0 4.0 0.0
		vertex -9.0 4.0 36.0
		vertex 9.0 4.0 36.0
	endloop
endfacet
facet normal 0 0 0
	outer loop
		vertex -9.0 -4.0 0.0
		vertex -9.0 -4.0 36.0
		vertex -9.0 4.0 0.0
	endloop
endfacet
facet normal 0 0 0
	outer loop
		vertex -9.0 4.0 0.0
		vertex -9.0 -4.0 36.0
		vertex -9.0 4.0 36.0
	endloop
endfacet
facet normal 0 0 0
	outer loop
		vertex 9.0 4.0 0.0
		vertex 9.0 4.0 36.0
		vertex 9.0 -4.0 36.0
	endloop
endfacet
facet normal 0 0 0
	outer loop
		vertex 9.0 4.0 0.0
		vertex 9.0 -4.0 36.0
		vertex 9.0 -4.0 0.0
	endloop
endfacet
endsolid 
solid 
facet normal 0 0 0
	outer loop
		vertex -5.0 -8.0 3.0
		vertex -5.0 8.0 3.0
		vertex 5.0 -8.0 3.0
	endloop
endfacet
facet normal 0 0 0
	outer loop
		vertex -5.0 8.0 3.0
		vertex 5.0 8.0 3.0
		vertex 5.0 -8.0 3.0
	endloop
endfacet
facet normal 0 0 0
	outer loop
		vertex -5.0 -8.0 4.0
		vertex 5.0 -8.0 4.0
		vertex -5.0 8.0 4.0
	endloop
endfacet
facet normal 0 0 0
	outer loop
		vertex 5.0 -8.0 4.0
		vertex 5.0 8.0 4.0
		vertex -5.0 8.0 4.0
	endloop
endfacet
facet normal 0 0 0
	outer loop
		vertex -5.0 -8.0 3.0
		vertex 5.0 -8.0 3.0
		vertex -5.0 -8.0 4.0
	endloop
endfacet
facet normal 0 0 0
	outer loop
		vertex 5.0 -8.0 3.0
		vertex 5.0 -8.0 4.0
		vertex -5.0 -8.0 4.0
	endloop
endfacet
facet normal 0 0 0
	outer loop
		vertex -5.0 8.0 3.0
		vertex -5.0 8.0 4.0
		vertex 5.0 8.0 3.0
	endloop
endfacet
facet normal 0 0 0
	outer loop
		vertex 5.0 8.0 3.0
		vertex -5.0 8.0 4.0
		vertex 5.0 8.0 4.0
	endloop
endfacet
facet normal 0 0 0
	outer loop
		vertex -5.0 -8.0 3.0
		vertex -5.0 -8.0 4.0
		vertex -5.0 8.0 3.0
	endloop
endfacet
facet normal 0 0 0
	outer loop
		vertex -5.0 8.0 3.0
		vertex -5.0 -8.0 4.0
		vertex -5.0 8.0 4.0
	endloop
endfacet
facet normal 0 0 0
	outer loop
		vertex 5.0 8.0 3.0
		vertex 5.0 8.0 4.0
		vertex 5.0 -8.0 4.0
	endloop
endfacet
facet normal 0 0 0
	outer loop
		vertex 5.0 8.0 3.0
		vertex 5.0 -8.0 4.0
		vertex 5.0 -8.0 3.0
	endloop
endfacet
endsolid 
solid 
facet normal 0 0 0
	outer loop
		vertex -8.0 -5.0 3.0
		vertex -8.0 5.0 3.0
		vertex 8.0 -5.0 3.0
	endloop
endfacet
facet normal 0 0 0
	outer loop
		vertex -8.0 5.0 3.0
		vertex 8.0 5.0 3.0
		vertex 8.0 -5.0 3.0
	endloop
endfacet
facet normal 0 0 0
	outer loop
		vertex -8.0 -5.0 4.0
		vertex 8.0 -5.0 4.0
		vertex -8.0 5.0 4.0
	endloop
endfacet
facet normal 0 0 0
	outer loop
		vertex 8.0 -5.0 4.0
		vertex 8.0 5.0 4.0
		vertex -8.0 5.0 4.0
	endloop
endfacet
facet normal 0 0 0
	outer loop
		vertex -8.0 -5.0 3.0
		vertex 8.0 -5.0 3.0
		vertex -8.0 -5.0 4.0
	endloop
endfacet
facet normal 0 0 0
	outer loop
		vertex 8.0 -5.0 3.0
		vertex 8.0 -5.0 4.0
		vertex -8.0 -5.0 4.0
	endloop
endfacet
facet normal 0 0 0
	outer loop
		vertex -8.0 5.0 3.0
		vertex -8.0 5.0 4.0
		vertex 8.0 5.0 3.0
	endloop
endfacet
facet normal 0 0 0
	outer loop
		vertex 8.0 5.0 3.0
		vertex -8.0 5.0 4.0
		vertex 8.0 5.0 4.0
	endloop
endfacet
facet normal 0 0 0
	outer loop
		vertex -8.0 -5.0 3.0
		vertex -8.0 -5.0 4.0
		vertex -8.0 5.0 3.0
	endloop
endfacet
facet normal 0 0 0
	outer loop
		vertex -8.0 5.0 3.0
		vertex -8.0 -5.0 4.0
		vertex -8.0 5.0 4.0
	endloop
endfacet
facet normal 0 0 0
	outer loop
		vertex 8.0 5.0 3.0
		vertex 8.0 5.0 4.0
		vertex 8.0 -5.0 4.0
	endloop
endfacet
facet normal 0 0 0
	outer loop
		vertex 8.0 5.0 3.0
		vertex 8.0 -5.0 4.0
		vertex 8.0 -5.0 3.0
	endloop
endfacet
endsolid 
solid 
facet normal 0 0 0
	outer loop
		vertex -5.0 -8.0 6.0
		vertex -5.0 8.0 6.0
		vertex 5.0 -8.0 6.0
	endloop
endfacet
facet normal 0 0 0
	outer loop
		vertex -5.0 8.0 6.0
		vertex 5.0 8.0 6.0
		vertex 5.0 -8.0 6.0
	endloop
endfacet
facet normal 0 0 0
	outer loop
		vertex -5.0 -8.0 7.0
		vertex 5.0 -8.0 7.0
		vertex -5.0 8.0 7.0
	endloop
endfacet
facet normal 0 0 0
	outer loop
		vertex 5.0 -8.0 7.0
		vertex 5.0 8.0 7.0
		vertex -5.0 8.0 7.0
	endloop
endfacet
facet normal 0 0 0
	outer loop
		vertex -5.0 -8.0 6.0
		vertex 5.0 -8.0 6.0
		vertex -5.0 -8.0 7.0
	endloop
endfacet
facet normal 0 0 0
	outer loop
		vertex 5.0 -8.0 6.0
		vertex 5.0 -8.0 7.0
		vertex -5.0 -8.0 7.0
	endloop
endfacet
facet normal 0 0 0
	outer loop
		vertex -5.0 8.0 6.0
		vertex -5.0 8.0 7.0
		vertex 5.0 8.0 6.0
	endloop
endfacet
facet normal 0 0 0
	outer loop
		vertex 5.0 8.0 6.0
		vertex -5.0 8.0 7.0
		vertex 5.0 8.0 7.0
	endloop
endfacet
facet normal 0 0 0
	outer loop
		vertex -5.0 -8.0 6.0
		vertex -5.0 -8.0 7.0
		vertex -5.0 8.0 6.0
	endloop
endfacet
facet normal 0 0 0
	outer loop
		vertex -5.0 8.0 6.0
		vertex -5.0 -8.0 7.0
		vertex -5.0 8.0 7.0
	endloop
endfacet
facet normal 0 0 0
	outer loop
		vertex 5.0 8.0 6.0
		vertex 5.0 8.0 7.0
		vertex 5.0 -8.0 7.0
	endloop
endfacet
facet normal 0 0 0
	outer loop
		vertex 5.0 8.0 6.0
		vertex 5.0 -8.0 7.0
		vertex 5.0 -8.0 6.0
	endloop
endfacet
endsolid 
solid 
facet normal 0 0 0
	outer loop
		vertex -8.0 -5.0 6.0
		vertex -8.0 5.0 6.0
		vertex 8.0 -5.0 6.0
	endloop
endfacet
facet normal 0 0 0
	outer loop
		vertex -8.0 5.0 6.0
		vertex 8.0 5.0 6.0
		vertex 8.0 -5.0 6.0
	endloop
endfacet
facet normal 0 0 0
	outer loop
		vertex -8.0 -5.0 7.0
		vertex 8.0 -5.0 7.0
		vertex -8.0 5.0 7.0
	endloop
endfacet
facet normal 0 0 0
	outer loop
		vertex 8.0 -5.0 7.0
		vertex 8.0 5.0 7.0
		vertex -8.0 5.0 7.0
	endloop
endfacet
facet normal 0 0 0
	outer loop
		vertex -8.0 -5.0 6.0
		vertex 8.0 -5.0 6.0
		vertex -8.0 -5.0 7.0
	endloop
endfacet
facet normal 0 0 0
	outer loop
		vertex 8.0 -5.0 6.0
		vertex 8.0 -5.0 7.0
		vertex -8.0 -5.0 7.0
	endloop
endfacet
facet normal 0 0 0
	outer loop
		vertex -8.0 5.0 6.0
		vertex -8.0 5.0 7.0
		vertex 8.0 5.0 6.0
	endloop
endfacet
facet normal 0 0 0
	outer loop
		vertex 8.0 5.0 6.0
		vertex -8.0 5.0 7.0
		vertex 8.0 5.0 7.0
	endloop
endfacet
facet normal 0 0 0
	outer loop
		vertex -8.0 -5.0 6.0
		vertex -8.0 -5.0 7.0
		vertex -8.0 5.0 6.0
	endloop
endfacet
facet normal 0 0 0
	outer loop
		vertex -8.0 5.0 6.0
		vertex -8.0 -5.0 7.0
		vertex -8.0 5.0 7.0
	endloop
endfacet
facet normal 0 0 0
	outer loop
		vertex 8.0 5.0 6.0
		vertex 8.0 5.0 7.0
		vertex 8.0 -5.0 7.0
	endloop
endfacet
facet normal 0 0 0
	outer loop
		vertex 8.0 5.0 6.0
		vertex 8.0 -5.0 7.0
		vertex 8.0 -5.0 6.0
	endloop
endfacet
endsolid 
solid 
facet normal 0 0 0
	outer loop
		vertex -5.0 -8.0 9.0
		vertex -5.0 8.0 9.0
		vertex 5.0 -8.0 9.0
	endloop
endfacet
facet normal 0 0 0
	outer loop
		vertex -5.0 8.0 9.0
		vertex 5.0 8.0 9.0
		vertex 5.0 -8.0 9.0
	endloop
endfacet
facet normal 0 0 0
	outer loop
		vertex -5.0 -8.0 10.0
		vertex 5.0 -8.0 10.0
		vertex -5.0 8.0 10.0
	endloop
endfacet
facet normal 0 0 0
	outer loop
		vertex 5.0 -8.0 10.0
		vertex 5.0 8.0 10.0
		vertex -5.0 8.0 10.0
	endloop
endfacet
facet normal 0 0 0
	outer loop
		vertex -5.0 -8.0 9.0
		vertex 5.0 -8.0 9.0
		vertex -5.0 -8.0 10.0
	endloop
endfacet
facet normal 0 0 0
	outer loop
		vertex 5.0 -8.0 9.0
		vertex 5.0 -8.0 10.0
		vertex -5.0 -8.0 10.0
	endloop
endfacet
facet normal 0 0 0
	outer loop
		vertex -5.0 8.0 9.0
		vertex -5.0 8.0 10.0
		vertex 5.0 8.0 9.0
	endloop
endfacet
facet normal 0 0 0
	outer loop
		vertex 5.0 8.0 9.0
		vertex -5.0 8.0 10.0
		vertex 5.0 8.0 10.0
	endloop
endfacet
facet normal 0 0 0
	outer loop
		vertex -5.0 -8.0 9.0
		vertex -5.0 -8.0 10.0
		vertex -5.0 8.0 9.0
	endloop
endfacet
facet normal 0 0 0
	outer loop
		vertex -5.0 8.0 9.0
		vertex -5.0 -8.0 10.0
		vertex -5.0 8.0 10.0
	endloop
endfacet
facet normal 0 0 0
	outer loop
		vertex 5.0 8.0 9.0
		vertex 5.0 8.0 10.0
		vertex 5.0 -8.0 10.0
	endloop
endfacet
facet normal 0 0 0
	outer loop
		vertex 5.0 8.0 9.0
		vertex 5.0 -8.0 10.0
		vertex 5.0 -8.0 9.0
	endloop
endfacet
endsolid 
solid 
facet normal 0 0 0
	outer loop
		vertex -8.0 -5.0 9.0
		vertex -8.0 5.0 9.0
		vertex 8.0 -5.0 9.0
	endloop
endfacet
facet normal 0 0 0
	outer loop
		vertex -8.0 5.0 9.0
		vertex 8.0 5.0 9.0
		vertex 8.0 -5.0 9.0
	endloop
endfacet
facet normal 0 0 0
	outer loop
		vertex -8.0 -5.0 10.0
		vertex 8.0 -5.0 10.0
		vertex -8.0 5.0 10.0
	endloop
endfacet
facet normal 0 0 0
	outer loop
		vertex 8.0 -5.0 10.0
		vertex 8.0 5.0 10.0
		vertex -8.0 5.0 10.0
	endloop
endfacet
facet normal 0 0 0
	outer loop
		vertex -8.0 -5.0 9.0
		vertex 8.0 -5.0 9.0
		vertex -8.0 -5.0 10.0
	endloop
endfacet
facet normal 0 0 0
	outer loop
		vertex 8.0 -5.0 9.0
		vertex 8.0 -5.0 10.0
		vertex -8.0 -5.0 10.0
	endloop
endfacet
facet normal 0 0 0
	outer loop
		vertex -8.0 5.0 9.0
		vertex -8.0 5.0 10.0
		vertex 8.0 5.0 9.0
	endloop
endfacet
facet normal 0 0 0
	outer loop
		vertex 8.0 5.0 9.0
		vertex -8.0 5.0 10.0
		vertex 8.0 5.0 10.0
	endloop
endfacet
facet normal 0 0 0
	outer loop
		vertex -8.0 -5.0 9.0
		vertex -8.0 -5.0 10.0
		vertex -8.0 5.0 9.0
	endloop
endfacet
facet normal 0 0 0
	outer loop
		vertex -8.0 5.0 9.0
		vertex -8.0 -5.0 10.0
		vertex -8.0 5.0 10.0
	endloop
endfacet
facet normal 0 0 0
	outer loop
		vertex 8.0 5.0 9.0
		vertex 8.0 5.0 10.0
		vertex 8.0 -5.0 10.0
	endloop
endfacet
facet normal 0 0 0
	outer loop
		vertex 8.0 5.0 9.0
		vertex 8.0 -5.0 10.0
		vertex 8.0 -5.0 9.0
	endloop
endfacet
endsolid 
solid 
facet normal 0 0 0
	outer loop
		vertex -5.0 -8.0 12.0
		vertex -5.0 8.0 12.0
		vertex 5.0 -8.0 12.0
	endloop
endfacet
facet normal 0 0 0
	outer loop
		vertex -5.0 8.0 12.0
		vertex 5.0 8.0 12.0
		vertex 5.0 -8.0 12.0
	endloop
endfacet
facet normal 0 0 0
	outer loop
		vertex -5.0 -8.0 13.0
		vertex 5.0 -8.0 13.0
		vertex -5.0 8.0 13.0
	endloop
endfacet
facet normal 0 0 0
	outer loop
		vertex 5.0 -8.0 13.0
		vertex 5.0 8.0 13.0
		vertex -5.0 8.0 13.0
	endloop
endfacet
facet normal 0 0 0
	outer loop
		vertex -5.0 -8.0 12.0
		vertex 5.0 -8.0 12.0
		vertex -5.0 -8.0 13.0
	endloop
endfacet
facet normal 0 0 0
	outer loop
		vertex 5.0 -8.0 12.0
		vertex 5.0 -8.0 13.0
		vertex -5.0 -8.0 13.0
	endloop
endfacet
facet normal 0 0 0
	outer loop
		vertex -5.0 8.0 12.0
		vertex -5.0 8.0 13.0
		vertex 5.0 8.0 12.0
	endloop
endfacet
facet normal 0 0 0
	outer loop
		vertex 5.0 8.0 12.0
		vertex -5.0 8.0 13.0
		vertex 5.0 8.0 13.0
	endloop
endfacet
facet normal 0 0 0
	outer loop
		vertex -5.0 -8.0 12.0
		vertex -5.0 -8.0 13.0
		vertex -5.0 8.0 12.0
	endloop
endfacet
facet normal 0 0 0
	outer loop
		vertex -5.0 8.0 12.0
		vertex -5.0 -8.0 13.0
		vertex -5.0 8.0 13.0
	endloop
endfacet
facet normal 0 0 0
	outer loop
		vertex 5.0 8.0 12.0
		vertex 5.0 8.0 13.0
		vertex 5.0 -8.0 13.0
	endloop
endfacet
facet normal 0 0 0
	outer loop
		vertex 5.0 8.0 12.0
		vertex 5.0 -8.0 13.0
		vertex 5.0 -8.0 12.0
	endloop
endfacet
endsolid 
solid 
facet normal 0 0 0
	outer loop
		vertex -8.0 -5.0 12.0
		vertex -8.0 5.0 12.0
		vertex 8.0 -5.0 12.0
	endloop
endfacet
facet normal 0 0 0
	outer loop
		vertex -8.0 5.0 12.0
		vertex 8.0 5.0 12.0
		vertex 8.0 -5.0 12.0
	endloop
endfacet
facet normal 0 0 0
	outer loop
		vertex -8.0 -5.0 13.0
		vertex 8.0 -5.0 13.0
		vertex -8.0 5.0 13.0
	endloop
endfacet
facet normal 0 0 0
	outer loop
		vertex 8.0 -5.0 13.0
		vertex 8.0 5.0 13.0
		vertex -8.0 5.0 13.0
	endloop
endfacet
facet normal 0 0 0
	outer loop
		vertex -8.0 -5.0 12.0
		vertex 8.0 -5.0 12.0
		vertex -8.0 -5.0 13.0
	endloop
endfacet
facet normal 0 0 0
	outer loop
		vertex 8.0 -5.0 12.0
		vertex 8.0 -5.0 13.0
		vertex -8.0 -5.0 13.0
	endloop
endfacet
facet normal 0 0 0
	outer loop
		vertex -8.0 5.0 12.0
		vertex -8.0 5.0 13.0
		vertex 8.0 5.0 12.0
	endloop
endfacet
facet normal 0 0 0
	outer loop
		vertex 8.0 5.0 12.0
		vertex -8.0 5.0 13.0
		vertex 8.0 5.0 13.0
	endloop
endfacet
facet normal 0 0 0
	outer loop
		vertex -8.0 -5.0 12.0
		vertex -8.0 -5.0 13.0
		vertex -8.0 5.0 12.0
	endloop
endfacet
facet normal 0 0 0
	outer loop
		vertex -8.0 5.0 12.0
		vertex -8.0 -5.0 13.0
		vertex -8.0 5.0 13.0
	endloop
endfacet
facet normal 0 0 0
	outer loop
		vertex 8.0 5.0 12.0
		vertex 8.0 5.0 13.0
		vertex 8.0 -5.0 13.0
	endloop
endfacet
facet normal 0 0 0
	outer loop
		vertex 8.0 5.0 12.0
		vertex 8.0 -5.0 13.0
		vertex 8.0 -5.0 12.0
	endloop
endfacet
endsolid 
solid 
facet normal 0 0 0
	outer loop
		vertex -5.0 -8.0 15.0
		vertex -5.0 8.0 15.0
		vertex 5.0 -8.0 15.0
	endloop
endfacet
facet normal 0 0 0
	outer loop
		vertex -5.0 8.0 15.0
		vertex 5.0 8.0 15.0
		vertex 5.0 -8.0 15.0
	endloop
endfacet
facet normal 0 0 0
	outer loop
		vertex -5.0 -8.0 16.0
		vertex 5.0 -8.0 16.0
		vertex -5.0 8.0 16.0
	endloop
endfacet
facet normal 0 0 0
	outer loop
		vertex 5.0 -8.0 16.0
		vertex 5.0 8.0 16.0
		vertex -5.0 8.0 16.0
	endloop
endfacet
facet normal 0 0 0
	outer loop
		vertex -5.0 -8.0 15.0
		vertex 5.0 -8.0 15.0
		vertex -5.0 -8.0 16.0
	endloop
endfacet
facet normal 0 0 0
	outer loop
		vertex 5.0 -8.0 15.0
		vertex 5.0 -8.0 16.0
		vertex -5.0 -8.0 16.0
	endloop
endfacet
facet normal 0 0 0
	outer loop
		vertex -5.0 8.0 15.0
		vertex -5.0 8.0 16.0
		vertex 5.0 8.0 15.0
	endloop
endfacet
facet normal 0 0 0
	outer loop
		vertex 5.0 8.0 15.0
		vertex -5.0 8.0 16.0
		vertex 5.0 8.0 16.0
	endloop
endfacet
facet normal 0 0 0
	outer loop
		vertex -5.0 -8.0 15.0
		vertex -5.0 -8.0 16.0
		vertex -5.0 8.0 15.0
	endloop
endfacet
facet normal 0 0 0
	outer loop
		vertex -5.0 8.0 15.0
		vertex -5.0 -8.0 16.0
		vertex -5.0 8.0 16.0
	endloop
endfacet
facet normal 0 0 0
	outer loop
		vertex 5.0 8.0 15.0
		vertex 5.0 8.0 16.0
		vertex 5.0 -8.0 16.0
	endloop
endfacet
facet normal 0 0 0
	outer loop
		vertex 5.0 8.0 15.0
		vertex 5.0 -8.0 16.0
		vertex 5.0 -8.0 15.0
	endloop
endfacet
endsolid 
solid 
facet normal 0 0 0
	outer loop
		vertex -8.0 -5.0 15.0
		vertex -8.0 5.0 15.0
		vertex 8.0 -5.0 15.0
	endloop
endfacet
facet normal 0 0 0
	outer loop
		vertex -8.0 5.0 15.0
		vertex 8.0 5.0 15.0
		vertex 8.0 -5.0 15.0
	endloop
endfacet
facet normal 0 0 0
	outer loop
		vertex -8.0 -5.0 16.0
		vertex 8.0 -5.0 16.0
		vertex -8.0 5.0 16.0
	endloop
endfacet
facet normal 0 0 0
	outer loop
		vertex 8.0 -5.0 16.0
		vertex 8.0 5.0 16.0
		vertex -8.0 5.0 16.0
	endloop
endfacet
facet normal 0 0 0
	outer loop
		vertex -8.0 -5.0 15.0
		vertex 8.0 -5.0 15.0
		vertex -8.0 -5.0 16.0
	endloop
endfacet
facet normal 0 0 0
	outer loop
		vertex 8.0 -5.0 15.0
		vertex 8.0 -5.0 16.0
		vertex -8.0 -5.0 16.0
	endloop
endfacet
facet normal 0 0 0
	outer loop
		vertex -8.0 5.0 15.0
		vertex -8.0 5.0 16.0
		vertex 8.0 5.0 15.0
	endloop
endfacet
facet normal 0 0 0
	outer loop
		vertex 8.0 5.0 15.0
		vertex -8.0 5.0 16.0
		vertex 8.0 5.0 16.0
	endloop
endfacet
facet normal 0 0 0
	outer loop
		vertex -8.0 -5.0 15.0
		vertex -8.0 -5.0 16.0
		vertex -8.0 5.0 15.0
	endloop
endfacet
facet normal 0 0 0
	outer loop
		vertex -8.0 5.0 15.0
		vertex -8.0 -5.0 16.0
		vertex -8.0 5.0 16.0
	endloop
endfacet
facet normal 0 0 0
	outer loop
		vertex 8.0 5.0 15.0
		vertex 8.0 5.0 16.0
		vertex 8.0 -5.0 16.0
	endloop
endfacet
facet normal 0 0 0
	outer loop
		vertex 8.0 5.0 15.0
		vertex 8.0 -5.0 16.0
		vertex 8.0 -5.0 15.0
	endloop
endfacet
endsolid 
solid 
facet normal 0 0 0
	outer loop
		vertex -5.0 -8.0 18.0
		vertex -5.0 8.0 18.0
		vertex 5.0 -8.0 18.0
	endloop
endfacet
facet normal 0 0 0
	outer loop
		vertex -5.0 8.0 18.0
		vertex 5.0 8.0 18.0
		vertex 5.0 -8.0 18.0
	endloop
endfacet
facet normal 0 0 0
	outer loop
		vertex -5.0 -8.0 19.0
		vertex 5.0 -8.0 19.0
		vertex -5.0 8.0 19.0
	endloop
endfacet
facet normal 0 0 0
	outer loop
		vertex 5.0 -8.0 19.0
		vertex 5.0 8.0 19.0
		vertex -5.0 8.0 19.0
	endloop
endfacet
facet normal 0 0 0
	outer loop
		vertex -5.0 -8.0 18.0
		vertex 5.0 -8.0 18.0
		vertex -5.0 -8.0 19.0
	endloop
endfacet
facet normal 0 0 0
	outer loop
		vertex 5.0 -8.0 18.0
		vertex 5.0 -8.0 19.0
		vertex -5.0 -8.0 19.0
	endloop
endfacet
facet normal 0 0 0
	outer loop
		vertex -5.0 8.0 18.0
		vertex -5.0 8.0 19.0
		vertex 5.0 8.0 18.0
	endloop
endfacet
facet normal 0 0 0
	outer loop
		vertex 5.0 8.0 18.0
		vertex -5.0 8.0 19.0
		vertex 5.0 8.0 19.0
	endloop
endfacet
facet normal 0 0 0
	outer loop
		vertex -5.0 -8.0 18.0
		vertex -5.0 -8.0 19.0
		vertex -5.0 8.0 18.0
	endloop
endfacet
facet normal 0 0 0
	outer loop
		vertex -5.0 8.0 18.0
		vertex -5.0 -8.0 19.0
		vertex -5.0 8.0 19.0
	endloop
endfacet
facet normal 0 0 0
	outer loop
		vertex 5.0 8.0 18.0
		vertex 5.0 8.0 19.0
		vertex 5.0 -8.0 19.0
	endloop
endfacet
facet normal 0 0 0
	outer loop
		vertex 5.0 8.0 18.0
		vertex 5.0 -8.0 19.0
		vertex 5.0 -8.0 18.0
	endloop
endfacet
endsolid 
solid 
facet normal 0 0 0
	outer loop
		vertex -8.0 -5.0 18.0
		vertex -8.0 5.0 18.0
		vertex 8.0 -5.0 18.0
	endloop
endfacet
facet normal 0 0 0
	outer loop
		vertex -8.0 5.0 18.0
		vertex 8.0 5.0 18.0
		vertex 8.0 -5.0 18.0
	endloop
endfacet
facet normal 0 0 0
	outer loop
		vertex -8.0 -5.0 19.0
		vertex 8.0 -5.0 19.0
		vertex -8.0 5.0 19.0
	endloop
endfacet
facet normal 0 0 0
	outer loop
		vertex 8.0 -5.0 19.0
		vertex 8.0 5.0 19.0
		vertex -8.0 5.0 19.0
	endloop
endfacet
facet normal 0 0 0
	outer loop
		vertex -8.0 -5.0 18.0
		vertex 8.0 -5.0 18.0
		vertex -8.0 -5.0 19.0
	endloop
endfacet
facet normal 0 0 0
	outer loop
		vertex 8.0 -5.0 18.0
		vertex 8.0 -5.0 19.0
		vertex -8.0 -5.0 19.0
	endloop
endfacet
facet normal 0 0 0
	outer loop
		vertex -8.0 5.0 18.0
		vertex -8.0 5.0 19.0
		vertex 8.0 5.0 18.0
	endloop
endfacet
facet normal 0 0 0
	outer loop
		vertex 8.0 5.0 18.0
		vertex -8.0 5.0 19.0
		vertex 8.0 5.0 19.0
	endloop
endfacet
facet normal 0 0 0
	outer loop
		vertex -8.0 -5.0 18.0
		vertex -8.0 -5.0 19.0
		vertex -8.0 5.0 18.0
	endloop
endfacet
facet normal 0 0 0
	outer loop
		vertex -8.0 5.0 18.0
		vertex -8.0 -5.0 19.0
		vertex -8.0 5.0 19.0
	endloop
endfacet
facet normal 0 0 0
	outer loop
		vertex 8.0 5.0 18.0
		vertex 8.0 5.0 19.0
		vertex 8.0 -5.0 19.0
	endloop
endfacet
facet normal 0 0 0
	outer loop
		vertex 8.0 5.0 18.0
		vertex 8.0 -5.0 19.0
		vertex 8.0 -5.0 18.0
	endloop
endfacet
endsolid 
solid 
facet normal 0 0 0
	outer loop
		vertex -5.0 -8.0 21.0
		vertex -5.0 8.0 21.0
		vertex 5.0 -8.0 21.0
	endloop
endfacet
facet normal 0 0 0
	outer loop
		vertex -5.0 8.0 21.0
		vertex 5.0 8.0 21.0
		vertex 5.0 -8.0 21.0
	endloop
endfacet
facet normal 0 0 0
	outer loop
		vertex -5.0 -8.0 22.0
		vertex 5.0 -8.0 22.0
		vertex -5.0 8.0 22.0
	endloop
endfacet
facet normal 0 0 0
	outer loop
		vertex 5.0 -8.0 22.0
		vertex 5.0 8.0 22.0
		vertex -5.0 8.0 22.0
	endloop
endfacet
facet normal 0 0 0
	outer loop
		vertex -5.0 -8.0 21.0
		vertex 5.0 -8.0 21.0
		vertex -5.0 -8.0 22.0
	endloop
endfacet
facet normal 0 0 0
	outer loop
		vertex 5.0 -8.0 21.0
		vertex 5.0 -8.0 22.0
		vertex -5.0 -8.0 22.0
	endloop
endfacet
facet normal 0 0 0
	outer loop
		vertex -5.0 8.0 21.0
		vertex -5.0 8.0 22.0
		vertex 5.0 8.0 21.0
	endloop
endfacet
facet normal 0 0 0
	outer loop
		vertex 5.0 8.0 21.0
		vertex -5.0 8.0 22.0
		vertex 5.0 8.0 22.0
	endloop
endfacet
facet normal 0 0 0
	outer loop
		vertex -5.0 -8.0 21.0
		vertex -5.0 -8.0 22.0
		vertex -5.0 8.0 21.0
	endloop
endfacet
facet normal 0 0 0
	outer loop
		vertex -5.0 8.0 21.0
		vertex -5.0 -8.0 22.0
		vertex -5.0 8.0 22.0
	endloop
endfacet
facet normal 0 0 0
	outer loop
		vertex 5.0 8.0 21.0
		vertex 5.0 8.0 22.0
		vertex 5.0 -8.0 22.0
	endloop
endfacet
facet normal 0 0 0
	outer loop
		vertex 5.0 8.0 21.0
		vertex 5.0 -8.0 22.0
		vertex 5.0 -8.0 21.0
	endloop
endfacet
endsolid 
solid 
facet normal 0 0 0
	outer loop
		vertex -8.0 -5.0 21.0
		vertex -8.0 5.0 21.0
		vertex 8.0 -5.0 21.0
	endloop
endfacet
facet normal 0 0 0
	outer loop
		vertex -8.0 5.0 21.0
		vertex 8.0 5.0 21.0
		vertex 8.0 -5.0 21.0
	endloop
endfacet
facet normal 0 0 0
	outer loop
		vertex -8.0 -5.0 22.0
		vertex 8.0 -5.0 22.0
		vertex -8.0 5.0 22.0
	endloop
endfacet
facet normal 0 0 0
	outer loop
		vertex 8.0 -5.0 22.0
		vertex 8.0 5.0 22.0
		vertex -8.0 5.0 22.0
	endloop
endfacet
facet normal 0 0 0
	outer loop
		vertex -8.0 -5.0 21.0
		vertex 8.0 -5.0 21.0
		vertex -8.0 -5.0 22.0
	endloop
endfacet
facet normal 0 0 0
	outer loop
		vertex 8.0 -5.0 21.0
		vertex 8.0 -5.0 22.0
		vertex -8.0 -5.0 22.0
	endloop
endfacet
facet normal 0 0 0
	outer loop
		vertex -8.0 5.0 21.0
		vertex -8.0 5.0 22.0
		vertex 8.0 5.0 21.0
	endloop
endfacet
facet normal 0 0 0
	outer loop
		vertex 8.0 5.0 21.0
		vertex -8.0 5.0 22.0
		vertex 8.0 5.0 22.0
	endloop
endfacet
facet normal 0 0 0
	outer loop
		vertex -8.0 -5.0 21.0
		vertex -8.0 -5.0 22.0
		vertex -8.0 5.0 21.0
	endloop
endfacet
facet normal 0 0 0
	outer loop
		vertex -8.0 5.0 21.0
		vertex -8.0 -5.0 22.0
		vertex -8.0 5.0 22.0
	endloop
endfacet
facet normal 0 0 0
	outer loop
		vertex 8.0 5.0 21.0
		vertex 8.0 5.0 22.0
		vertex 8.0 -5.0 22.0
	endloop
endfacet
facet normal 0 0 0
	outer loop
		vertex 8.0 5.0 21.0
		vertex 8.0 -5.0 22.0
		vertex 8.0 -5.0 21.0
	endloop
endfacet
endsolid 
solid 
facet normal 0 0 0
	outer loop
		vertex -5.0 -8.0 24.0
		vertex -5.0 8.0 24.0
		vertex 5.0 -8.0 24.0
	endloop
endfacet
facet normal 0 0 0
	outer loop
		vertex -5.0 8.0 24.0
		vertex 5.0 8.0 24.0
		vertex 5.0 -8.0 24.0
	endloop
endfacet
facet normal 0 0 0
	outer loop
		vertex -5.0 -8.0 25.0
		vertex 5.0 -8.0 25.0
		vertex -5.0 8.0 25.0
	endloop
endfacet
facet normal 0 0 0
	outer loop
		vertex 5.0 -8.0 25.0
		vertex 5.0 8.0 25.0
		vertex -5.0 8.0 25.0
	endloop
endfacet
facet normal 0 0 0
	outer loop
		vertex -5.0 -8.0 24.0
		vertex 5.0 -8.0 24.0
		vertex -5.0 -8.0 25.0
	endloop
endfacet
facet normal 0 0 0
	outer loop
		vertex 5.0 -8.0 24.0
		vertex 5.0 -8.0 25.0
		vertex -5.0 -8.0 25.0
	endloop
endfacet
facet normal 0 0 0
	outer loop
		vertex -5.0 8.0 24.0
		vertex -5.0 8.0 25.0
		vertex 5.0 8.0 24.0
	endloop
endfacet
facet normal 0 0 0
	outer loop
		vertex 5.0 8.0 24.0
		vertex -5.0 8.0 25.0
		vertex 5.0 8.0 25.0
	endloop
endfacet
facet normal 0 0 0
	outer loop
		vertex -5.0 -8.0 24.0
		vertex -5.0 -8.0 25.0
		vertex -5.0 8.0 24.0
	endloop
endfacet
facet normal 0 0 0
	outer loop
		vertex -5.0 8.0 24.0
		vertex -5.0 -8.0 25.0
		vertex -5.0 8.0 25.0
	endloop
endfacet
facet normal 0 0 0
	outer loop
		vertex 5.0 8.0 24.0
		vertex 5.0 8.0 25.0
		vertex 5.0 -8.0 25.0
	endloop
endfacet
facet normal 0 0 0
	outer loop
		vertex 5.0 8.0 24.0
		vertex 5.0 -8.0 25.0
		vertex 5.0 -8.0 24.0
	endloop
endfacet
endsolid 
solid 
facet normal 0 0 0
	outer loop
		vertex -8.0 -5.0 24.0
		vertex -8.0 5.0 24.0
		vertex 8.0 -5.0 24.0
	endloop
endfacet
facet normal 0 0 0
	outer loop
		vertex -8.0 5.0 24.0
		vertex 8.0 5.0 24.0
		vertex 8.0 -5.0 24.0
	endloop
endfacet
facet normal 0 0 0
	outer loop
		vertex -8.0 -5.0 25.0
		vertex 8.0 -5.0 25.0
		vertex -8.0 5.0 25.0
	endloop
endfacet
facet normal 0 0 0
	outer loop
		vertex 8.0 -5.0 25.0
		vertex 8.0 5.0 25.0
		vertex -8.0 5.0 25.0
	endloop
endfacet
facet normal 0 0 0
	outer loop
		vertex -8.0 -5.0 24.0
		vertex 8.0 -5.0 24.0
		vertex -8.0 -5.0 25.0
	endloop
endfacet
facet normal 0 0 0
	outer loop
		vertex 8.0 -5.0 24.0
		vertex 8.0 -5.0 25.0
		vertex -8.0 -5.0 25.0
	endloop
endfacet
facet normal 0 0 0
	outer loop
		vertex -8.0 5.0 24.0
		vertex -8.0 5.0 25.0
		vertex 8.0 5.0 24.0
	endloop
endfacet
facet normal 0 0 0
	outer loop
		vertex 8.0 5.0 24.0
		vertex -8.0 5.0 25.0
		vertex 8.0 5.0 25.0
	endloop
endfacet
facet normal 0 0 0
	outer loop
		vertex -8.0 -5.0 24.0
		vertex -8.0 -5.0 25.0
		vertex -8.0 5.0 24.0
	endloop
endfacet
facet normal 0 0 0
	outer loop
		vertex -8.0 5.0 24.0
		vertex -8.0 -5.0 25.0
		vertex -8.0 5.0 25.0
	endloop
endfacet
facet normal 0 0 0
	outer loop
		vertex 8.0 5.0 24.0
		vertex 8.0 5.0 25.0
		vertex 8.0 -5.0 25.0
	endloop
endfacet
facet normal 0 0 0
	outer loop
		vertex 8.0 5.0 24.0
		vertex 8.0 -5.0 25.0
		vertex 8.0 -5.0 24.0
	endloop
endfacet
endsolid 
solid 
facet normal 0 0 0
	outer loop
		vertex -5.0 -8.0 27.0
		vertex -5.0 8.0 27.0
		vertex 5.0 -8.0 27.0
	endloop
endfacet
facet normal 0 0 0
	outer loop
		vertex -5.0 8.0 27.0
		vertex 5.0 8.0 27.0
		vertex 5.0 -8.0 27.0
	endloop
endfacet
facet normal 0 0 0
	outer loop
		vertex -5.0 -8.0 28.0
		vertex 5.0 -8.0 28.0
		vertex -5.0 8.0 28.0
	endloop
endfacet
facet normal 0 0 0
	outer loop
		vertex 5.0 -8.0 28.0
		vertex 5.0 8.0 28.0
		vertex -5.0 8.0 28.0
	endloop
endfacet
facet normal 0 0 0
	outer loop
		vertex -5.0 -8.0 27.0
		vertex 5.0 -8.0 27.0
		vertex -5.0 -8.0 28.0
	endloop
endfacet
facet normal 0 0 0
	outer loop
		vertex 5.0 -8.0 27.0
		vertex 5.0 -8.0 28.0
		vertex -5.0 -8.0 28.0
	endloop
endfacet
facet normal 0 0 0
	outer loop
		vertex -5.0 8.0 27.0
		vertex -5.0 8.0 28.0
		vertex 5.0 8.0 27.0
	endloop
endfacet
facet normal 0 0 0
	outer loop
		vertex 5.0 8.0 27.0
		vertex -5.0 8.0 28.0
		vertex 5.0 8.0 28.0
	endloop
endfacet
facet normal 0 0 0
	outer loop
		vertex -5.0 -8.0 27.0
		vertex -5.0 -8.0 28.0
		vertex -5.0 8.0 27.0
	endloop
endfacet
facet normal 0 0 0
	outer loop
		vertex -5.0 8.0 27.0
		vertex -5.0 -8.0 28.0
		vertex -5.0 8.0 28.0
	endloop
endfacet
facet normal 0 0 0
	outer loop
		vertex 5.0 8.0 27.0
		vertex 5.0 8.0 28.0
		vertex 5.0 -8.0 28.0
	endloop
endfacet
facet normal 0 0 0
	outer loop
		vertex 5.0 8.0 27.0
		vertex 5.0 -8.0 28.0
		vertex 5.0 -8.0 27.0
	endloop
endfacet
endsolid 
solid 
facet normal 0 0 0
	outer loop
		vertex -8.0 -5.0 27.0
		vertex -8.0 5.0 27.0
		vertex 8.0 -5.0 27.0
	endloop
endfacet
facet normal 0 0 0
	outer loop
		vertex -8.0 5.0 27.0
		vertex 8.0 5.0 27.0
		vertex 8.0 -5.0 27.0
	endloop
endfacet
facet normal 0 0 0
	outer loop
		vertex -8.0 -5.0 28.0
		vertex 8.0 -5.0 28.0
		vertex -8.0 5.0 28.0
	endloop
endfacet
facet normal 0 0 0
	outer loop
		vertex 8.0 -5.0 28.0
		vertex 8.0 5.0 28.0
		vertex -8.0 5.0 28.0
	endloop
endfacet
facet normal 0 0 0
	outer loop
		vertex -8.0 -5.0 27.0
		vertex 8.0 -5.0 27.0
		vertex -8.0 -5.0 28.0
	endloop
endfacet
facet normal 0 0 0
	outer loop
		vertex 8.0 -5.0 27.0
		vertex 8.0 -5.0 28.0
		vertex -8.0 -5.0 28.0
	endloop
endfacet
facet normal 0 0 0
	outer loop
		vertex -8.0 5.0 27.0
		vertex -8.0 5.0 28.0
		vertex 8.0 5.0 27.0
	endloop
endfacet
facet normal 0 0 0
	outer loop
		vertex 8.0 5.0 27.0
		vertex -8.0 5.0 28.0
		vertex 8.0 5.0 28.0
	endloop
endfacet
facet normal 0 0 0
	outer loop
		vertex -8.0 -5.0 27.0
		vertex -8.0 -5.0 28.0
		vertex -8.0 5.0 27.0
	endloop
endfacet
facet normal 0 0 0
	outer loop
		vertex -8.0 5.0 27.0
		vertex -8.0 -5.0 28.0
		vertex -8.0 5.0 28.0
	endloop
endfacet
facet normal 0 0 0
	outer loop
		vertex 8.0 5.0 27.0
		vertex 8.0 5.0 28.0
		vertex 8.0 -5.0 28.0
	endloop
endfacet
facet normal 0 0 0
	outer loop
		vertex 8.0 5.0 27.0
		vertex 8.0 -5.0 28.0
		vertex 8.0 -5.0 27.0
	endloop
endfacet
endsolid 
solid 
facet normal 0 0 0
	outer loop
		vertex -5.0 -8.0 30.0
		vertex -5.0 8.0 30.0
		vertex 5.0 -8.0 30.0
	endloop
endfacet
facet normal 0 0 0
	outer loop
		vertex -5.0 8.0 30.0
		vertex 5.0 8.0 30.0
		vertex 5.0 -8.0 30.0
	endloop
endfacet
facet normal 0 0 0
	outer loop
		vertex -5.0 -8.0 31.0
		vertex 5.0 -8.0 31.0
		vertex -5.0 8.0 31.0
	endloop
endfacet
facet normal 0 0 0
	outer loop
		vertex 5.0 -8.0 31.0
		vertex 5.0 8.0 31.0
		vertex -5.0 8.0 31.0
	endloop
endfacet
facet normal 0 0 0
	outer loop
		vertex -5.0 -8.0 30.0
		vertex 5.0 -8.0 30.0
		vertex -5.0 -8.0 31.0
	endloop
endfacet
facet normal 0 0 0
	outer loop
		vertex 5.0 -8.0 30.0
		vertex 5.0 -8.0 31.0
		vertex -5.0 -8.0 31.0
	endloop
endfacet
facet normal 0 0 0
	outer loop
		vertex -5.0 8.0 30.0
		vertex -5.0 8.0 31.0
		vertex 5.0 8.0 30.0
	endloop
endfacet
facet normal 0 0 0
	outer loop
		vertex 5.0 8.0 30.0
		vertex -5.0 8.0 31.0
		vertex 5.0 8.0 31.0
	endloop
endfacet
facet normal 0 0 0
	outer loop
		vertex -5.0 -8.0 30.0
		vertex -5.0 -8.0 31.0
		vertex -5.0 8.0 30.0
	endloop
endfacet
facet normal 0 0 0
	outer loop
		vertex -5.0 8.0 30.0
		vertex -5.0 -8.0 31.0
		vertex -5.0 8.0 31.0
	endloop
endfacet
facet normal 0 0 0
	outer loop
		vertex 5.0 8.0 30.0
		vertex 5.0 8.0 31.0
		vertex 5.0 -8.0 31.0
	endloop
endfacet
facet normal 0 0 0
	outer loop
		vertex 5.0 8.0 30.0
		vertex 5.0 -8.0 31.0
		vertex 5.0 -8.0 30.0
	endloop
endfacet
endsolid 
solid 
facet normal 0 0 0
	outer loop
		vertex -8.0 -5.0 30.0
		vertex -8.0 5.0 30.0
		vertex 8.0 -5.0 30.0
	endloop
endfacet
facet normal 0 0 0
	outer loop
		vertex -8.0 5.0 30.0
		vertex 8.0 5.0 30.0
		vertex 8.0 -5.0 30.0
	endloop
endfacet
facet normal 0 0 0
	outer loop
		vertex -8.0 -5.0 31.0
		vertex 8.0 -5.0 31.0
		vertex -8.0 5.0 31.0
	endloop
endfacet
facet normal 0 0 0
	outer loop
		vertex 8.0 -5.0 31.0
		vertex 8.0 5.0 31.0
		vertex -8.0 5.0 31.0
	endloop
endfacet
facet normal 0 0 0
	outer loop
		vertex -8.0 -5.0 30.0
		vertex 8.0 -5.0 30.0
		vertex -8.0 -5.0 31.0
	endloop
endfacet
facet normal 0 0 0
	outer loop
		vertex 8.0 -5.0 30.0
		vertex 8.0 -5.0 31.0
		vertex -8.0 -5.0 31.0
	endloop
endfacet
facet normal 0 0 0
	outer loop
		vertex -8.0 5.0 30.0
		vertex -8.0 5.0 31.0
		vertex 8.0 5.0 30.0
	endloop
endfacet
facet normal 0 0 0
	outer loop
		vertex 8.0 5.0 30.0
		vertex -8.0 5.0 31.0
		vertex 8.0 5.0 31.0
	endloop
endfacet
facet normal 0 0 0
	outer loop
		vertex -8.0 -5.0 30.0
		vertex -8.0 -5.0 31.0
		vertex -8.0 5.0 30.0
	endloop
endfacet
facet normal 0 0 0
	outer loop
		vertex -8.0 5.0 30.0
		vertex -8.0 -5.0 31.0
		vertex -8.0 5.0 31.0
	endloop
endfacet
facet normal 0 0 0
	outer loop
		vertex 8.0 5.0 30.0
		vertex 8.0 5.0 31.0
		vertex 8.0 -5.0 31.0
	endloop
endfacet
facet normal 0 0 0
	outer loop
		vertex 8.0 5.0 30.0
		vertex 8.0 -5.0 31.0
		vertex 8.0 -5.0 30.0
	endloop
endfacet
endsolid 
solid 
facet normal 0 0 0
	outer loop
		vertex -5.0 -8.0 33.0
		vertex -5.0 8.0 33.0
		vertex 5.0 -8.0 33.0
	endloop
endfacet
facet normal 0 0 0
	outer loop
		vertex -5.0 8.0 33.0
		vertex 5.0 8.0 33.0
		vertex 5.0 -8.0 33.0
	endloop
endfacet
facet normal 0 0 0
	outer loop
		vertex -5.0 -8.0 34.0
		vertex 5.0 -8.0 34.0
		vertex -5.0 8.0 34.0
	endloop
endfacet
facet normal 0 0 0
	outer loop
		vertex 5.0 -8.0 34.0
		vertex 5.0 8.0 34.0
		vertex -5.0 8.0 34.0
	endloop
endfacet
facet normal 0 0 0
	outer loop
		vertex -5.0 -8.0 33.0
		vertex 5.0 -8.0 33.0
		vertex -5.0 -8.0 34.0
	endloop
endfacet
facet normal 0 0 0
	outer loop
		vertex 5.0 -8.0 33.0
		vertex 5.0 -8.0 34.0
		vertex -5.0 -8.0 34.0
	endloop
endfacet
facet normal 0 0 0
	outer loop
		vertex -5.0 8.0 33.0
		vertex -5.0 8.0 34.0
		vertex 5.0 8.0 33.0
	endloop
endfacet
facet normal 0 0 0
	outer loop
		vertex 5.0 8.0 33.0
		vertex -5.0 8.0 34.0
		vertex 5.0 8.0 34.0
	endloop
endfacet
facet normal 0 0 0
	outer loop
		vertex -5.0 -8.0 33.0
		vertex -5.0 -8.0 34.0
		vertex -5.0 8.0 33.0
	endloop
endfacet
facet normal 0 0 0
	outer loop
		vertex -5.0 8.0 33.0
		vertex -5.0 -8.0 34.0
		vertex -5.0 8.0 34.0
	endloop
endfacet
facet normal 0 0 0
	outer loop
		vertex 5.0 8.0 33.0
		vertex 5.0 8.0 34.0
		vertex 5.0 -8.0 34.0
	endloop
endfacet
facet normal 0 0 0
	outer loop
		vertex 5.0 8.0 33.0
		vertex 5.0 -8.0 34.0
		vertex 5.0 -8.0 33.0
	endloop
endfacet
endsolid 
solid 
facet normal 0 0 0
	outer loop
		vertex -8.0 -5.0 33.0
		vertex -8.0 5.0 33.0
		vertex 8.0 -5.0 33.0
	endloop
endfacet
facet normal 0 0 0
	outer loop
		vertex -8.0 5.0 33.0
		vertex 8.0 5.0 33.0
		vertex 8.0 -5.0 33.0
	endloop
endfacet
facet normal 0 0 0
	outer loop
		vertex -8.0 -5.0 34.0
		vertex 8.0 -5.0 34.0
		vertex -8.0 5.0 34.0
	endloop
endfacet
facet normal 0 0 0
	outer loop
		vertex 8.0 -5.0 34.0
		vertex 8.0 5.0 34.0
		vertex -8.0 5.0 34.0
	endloop
endfacet
facet normal 0 0 0
	outer loop
		vertex -8.0 -5.0 33.0
		vertex 8.0 -5.0 33.0
		vertex -8.0 -5.0 34.0
	endloop
endfacet
facet normal 0 0 0
	outer loop
		vertex 8.0 -5.0 33.0
		vertex 8.0 -5.0 34.0
		vertex -8.0 -5.0 34.0
	endloop
endfacet
facet normal 0 0 0
	outer loop
		vertex -8.0 5.0 33.0
		vertex -8.0 5.0 34.0
		vertex 8.0 5.0 33.0
	endloop
endfacet
facet normal 0 0 0
	outer loop
		vertex 8.0 5.0 33.0
		vertex -8.0 5.0 34.0
		vertex 8.0 5.0 34.0
	endloop
endfacet
facet normal 0 0 0
	outer loop
		vertex -8.0 -5.0 33.0
		vertex -8.0 -5.0 34.0
		vertex -8.0 5.0 33.0
	endloop
endfacet
facet normal 0 0 0
	outer loop
		vertex -8.0 5.0 33.0
		vertex -8.0 -5.0 34.0
		vertex -8.0 5.0 34.0
	endloop
endfacet
facet normal 0 0 0
	outer loop
		vertex 8.0 5.0 33.0
		vertex 8.0 5.0 34.0
		vertex 8.0 -5.0 34.0
	endloop
endfacet
facet normal 0 0 0
	outer loop
		vertex 8.0 5.0 33.0
		vertex 8.0 -5.0 34.0
		vertex 8.0 -5.0 33.0
	endloop
endfacet
endsolid 
solid 
facet normal 0 0 0
	outer loop
		vertex -1.5 -12.0 2.75
		vertex -1.5 -6.0 2.75
		vertex 1.5 -12.0 2.75
	endloop
endfacet
facet normal 0 0 0
	outer loop
		vertex -1.5 -6.0 2.75
		vertex 1.5 -6.0 2.75
		vertex 1.5 -12.0 2.75
	endloop
endfacet
facet normal 0 0 0
	outer loop
		vertex -1.5 -12.0 3.25
		vertex 1.5 -12.0 3.25
		vertex -1.5 -6.0 3.25
	endloop
endfacet
facet normal 0 0 0
	outer loop
		vertex 1.5 -12.0 3.25
		vertex 1.5 -6.0 3.25
		vertex -1.5 -6.0 3.25
	endloop
endfacet
facet normal 0 0 0
	outer loop
		vertex -1.5 -12.0 2.75
		vertex 1.5 -12.0 2.75
		vertex -1.5 -12.0 3.25
	endloop
endfacet
facet normal 0 0 0
	outer loop
		vertex 1.5 -12.0 2.75
		vertex 1.5 -12.0 3.25
		vertex -1.5 -12.0 3.25
	endloop
endfacet
facet normal 0 0 0
	outer loop
		vertex -1.5 -6.0 2.75
		vertex -1.5 -6.0 3.25
		vertex 1.5 -6.0 2.75
	endloop
endfacet
facet normal 0 0 0
	outer loop
		vertex 1.5 -6.0 2.75
		vertex -1.5 -6.0 3.25
		vertex 1.5 -6.0 3.25
	endloop
endfacet
facet normal 0 0 0
	outer loop
		vertex -1.5 -12.0 2.75
		vertex -1.5 -12.0 3.25
		vertex -1.5 -6.0 2.75
	endloop
endfacet
facet normal 0 0 0
	outer loop
		vertex -1.5 -6.0 2.75
		vertex -1.5 -12.0 3.25
		vertex -1.5 -6.0 3.25
	endloop
endfacet
facet normal 0 0 0
	outer loop
		vertex 1.5 -6.0 2.75
		vertex 1.5 -6.0 3.25
		vertex 1.5 -12.0 3.25
	endloop
endfacet
facet normal 0 0 0
	outer loop
		vertex 1.5 -6.0 2.75
		vertex 1.5 -12.0 3.25
		vertex 1.5 -12.0 2.75
	endloop
endfacet
endsolid 
solid 
facet normal 0 0 0
	outer loop
		vertex -0.75 -11.5 0.0
		vertex -0.7834936490538903 -11.375 0.0
		vertex -0.7834936490538903 -11.375 3.0
	endloop
endfacet
facet normal 0 0 0
	outer loop
		vertex -0.75 -11.5 0.0
		vertex -0.7834936490538903 -11.375 3.0
		vertex -0.75 -11.5 3.0
	endloop
endfacet
facet normal 0 0 0
	outer loop
		vertex -0.7834936490538903 -11.375 0.0
		vertex -0.875 -11.28349364905389 0.0
		vertex -0.875 -11.28349364905389 3.0
	endloop
endfacet
facet normal 0 0 0
	outer loop
		vertex -0.7834936490538903 -11.375 0.0
		vertex -0.875 -11.28349364905389 3.0
		vertex -0.7834936490538903 -11.375 3.0
	endloop
endfacet
facet normal 0 0 0
	outer loop
		vertex -0.875 -11.28349364905389 0.0
		vertex -1.0 -11.25 0.0
		vertex -1.0 -11.25 3.0
	endloop
endfacet
facet normal 0 0 0
	outer loop
		vertex -0.875 -11.28349364905389 0.0
		vertex -1.0 -11.25 3.0
		vertex -0.875 -11.28349364905389 3.0
	endloop
endfacet
facet normal 0 0 0
	outer loop
		vertex -1.0 -11.25 0.0
		vertex -1.125 -11.28349364905389 0.0
		vertex -1.125 -11.28349364905389 3.0
	endloop
endfacet
facet normal 0 0 0
	outer loop
		vertex -1.0 -11.25 0.0
		vertex -1.125 -11.28349364905389 3.0
		vertex -1.0 -11.25 3.0
	endloop
endfacet
facet normal 0 0 0
	outer loop
		vertex -1.125 -11.28349364905389 0.0
		vertex -1.2165063509461096 -11.375 0.0
		vertex -1.2165063509461096 -11.375 3.0
	endloop
endfacet
facet normal 0 0 0
	outer loop
		vertex -1.125 -11.28349364905389 0.0
		vertex -1.2165063509461096 -11.375 3.0
		vertex -1.125 -11.28349364905389 3.0
	endloop
endfacet
facet normal 0 0 0
	outer loop
		vertex -1.2165063509461096 -11.375 0.0
		vertex -1.25 -11.5 0.0
		vertex -1.25 -11.5 3.0
	endloop
endfacet
facet normal 0 0 0
	outer loop
		vertex -1.2165063509461096 -11.375 0.0
		vertex -1.25 -11.5 3.0
		vertex -1.2165063509461096 -11.375 3.0
	endloop
endfacet
facet normal 0 0 0
	outer loop
		vertex -1.25 -11.5 0.0
		vertex -1.2165063509461098 -11.625 0.0
		vertex -1.2165063509461098 -11.625 3.0
	endloop
endfacet
facet normal 0 0 0
	outer loop
		vertex -1.25 -11.5 0.0
		vertex -1.2165063509461098 -11.625 3.0
		vertex -1.25 -11.5 3.0
	endloop
endfacet
facet normal 0 0 0
	outer loop
		vertex -1.2165063509461098 -11.625 0.0
		vertex -1.125 -11.71650635094611 0.0
		vertex -1.125 -11.71650635094611 3.0
	endloop
endfacet
facet normal 0 0 0
	outer loop
		vertex -1.2165063509461098 -11.625 0.0
		vertex -1.125 -11.71650635094611 3.0
		vertex -1.2165063509461098 -11.625 3.0
	endloop
endfacet
facet normal 0 0 0
	outer loop
		vertex -1.125 -11.71650635094611 0.0
		vertex -1.0 -11.75 0.0
		vertex -1.0 -11.75 3.0
	endloop
endfacet
facet normal 0 0 0
	outer loop
		vertex -1.125 -11.71650635094611 0.0
		vertex -1.0 -11.75 3.0
		vertex -1.125 -11.71650635094611 3.0
	endloop
endfacet
facet normal 0 0 0
	outer loop
		vertex -1.0 -11.75 0.0
		vertex -0.875 -11.71650635094611 0.0
		vertex -0.875 -11.71650635094611 3.0
	endloop
endfacet
facet normal 0 0 0
	outer loop
		vertex -1.0 -11.75 0.0
		vertex -0.875 -11.71650635094611 3.0
		vertex -1.0 -11.75 3.0
	endloop
endfacet
facet normal 0 0 0
	outer loop
		vertex -0.875 -11.71650635094611 0.0
		vertex -0.7834936490538903 -11.625 0.0
		vertex -0.7834936490538903 -11.625 3.0
	endloop
endfacet
facet normal 0 0 0
	outer loop
		vertex -0.875 -11.71650635094611 0.0
		vertex -0.7834936490538903 -11.625 3.0
		vertex -0.875 -11.71650635094611 3.0
	endloop
endfacet
facet normal 0 0 0
	outer loop
		vertex -0.7834936490538903 -11.625 0.0
		vertex -0.75 -11.5 0.0
		vertex -0.75 -11.5 3.0
	endloop
endfacet
facet normal 0 0 0
	outer loop
		vertex -0.7834936490538903 -11.625 0.0
		vertex -0.75 -11.5 3.0
		vertex -0.7834936490538903 -11.625 3.0
	endloop
endfacet
endsolid 
solid 
facet normal 0 0 0
	outer loop
		vertex 1.25 -11.5 0.0
		vertex 1.2165063509461096 -11.375 0.0
		vertex 1.2165063509461096 -11.375 3.0
	endloop
endfacet
facet normal 0 0 0
	outer loop
		vertex 1.25 -11.5 0.0
		vertex 1.2165063509461096 -11.375 3.0
		vertex 1.25 -11.5 3.0
	endloop
endfacet
facet normal 0 0 0
	outer loop
		vertex 1.2165063509461096 -11.375 0.0
		vertex 1.125 -11.28349364905389 0.0
		vertex 1.125 -11.28349364905389 3.0
	endloop
endfacet
facet normal 0 0 0
	outer loop
		vertex 1.2165063509461096 -11.375 0.0
		vertex 1.125 -11.28349364905389 3.0
		vertex 1.2165063509461096 -11.375 3.0
	endloop
endfacet
facet normal 0 0 0
	outer loop
		vertex 1.125 -11.28349364905389 0.0
		vertex 1.0 -11.25 0.0
		vertex 1.0 -11.25 3.0
	endloop
endfacet
facet normal 0 0 0
	outer loop
		vertex 1.125 -11.28349364905389 0.0
		vertex 1.0 -11.25 3.0
		vertex 1.125 -11.28349364905389 3.0
	endloop
endfacet
facet normal 0 0 0
	outer loop
		vertex 1.0 -11.25 0.0
		vertex 0.875 -11.28349364905389 0.0
		vertex 0.875 -11.28349364905389 3.0
	endloop
endfacet
facet normal 0 0 0
	outer loop
		vertex 1.0 -11.25 0.0
		vertex 0.875 -11.28349364905389 3.0
		vertex 1.0 -11.25 3.0
	endloop
endfacet
facet normal 0 0 0
	outer loop
		vertex 0.875 -11.28349364905389 0.0
		vertex 0.7834936490538904 -11.375 0.0
		vertex 0.7834936490538904 -11.375 3.0
	endloop
endfacet
facet normal 0 0 0
	outer loop
		vertex 0.875 -11.28349364905389 0.0
		vertex 0.7834936490538904 -11.375 3.0
		vertex 0.875 -11.28349364905389 3.0
	endloop
endfacet
facet normal 0 0 0
	outer loop
		vertex 0.7834936490538904 -11.375 0.0
		vertex 0.75 -11.5 0.0
		vertex 0.75 -11.5 3.0
	endloop
endfacet
facet normal 0 0 0
	outer loop
		vertex 0.7834936490538904 -11.375 0.0
		vertex 0.75 -11.5 3.0
		vertex 0.7834936490538904 -11.375 3.0
	endloop
endfacet
facet normal 0 0 0
	outer loop
		vertex 0.75 -11.5 0.0
		vertex 0.7834936490538902 -11.625 0.0
		vertex 0.7834936490538902 -11.625 3.0
	endloop
endfacet
facet normal 0 0 0
	outer loop
		vertex 0.75 -11.5 0.0
		vertex 0.7834936490538902 -11.625 3.0
		vertex 0.75 -11.5 3.0
	endloop
endfacet
facet normal 0 0 0
	outer loop
		vertex 0.7834936490538902 -11.625 0.0
		vertex 0.8749999999999999 -11.71650635094611 0.0
		vertex 0.8749999999999999 -11.71650635094611 3.0
	endloop
endfacet
facet normal 0 0 0
	outer loop
		vertex 0.7834936490538902 -11.625 0.0
		vertex 0.8749999999999999 -11.71650635094611 3.0
		vertex 0.7834936490538902 -11.625 3.0
	endloop
endfacet
facet normal 0 0 0
	outer loop
		vertex 0.8749999999999999 -11.71650635094611 0.0
		vertex 1.0 -11.75 0.0
		vertex 1.0 -11.75 3.0
	endloop
endfacet
facet normal 0 0 0
	outer loop
		vertex 0.8749999999999999 -11.71650635094611 0.0
		vertex 1.0 -11.75 3.0
		vertex 0.8749999999999999 -11.71650635094611 3.0
	endloop
endfacet
facet normal 0 0 0
	outer loop
		vertex 1.0 -11.75 0.0
		vertex 1.125 -11.71650635094611 0.0
		vertex 1.125 -11.71650635094611 3.0
	endloop
endfacet
facet normal 0 0 0
	outer loop
		vertex 1.0 -11.75 0.0
		vertex 1.125 -11.71650635094611 3.0
		vertex 1.0 -11.75 3.0
	endloop
endfacet
facet normal 0 0 0
	outer loop
		vertex 1.125 -11.71650635094611 0.0
		vertex 1.2165063509461098 -11.625 0.0
		vertex 1.2165063509461098 -11.625 3.0
	endloop
endfacet
facet normal 0 0 0
	outer loop
		vertex 1.125 -11.71650635094611 0.0
		vertex 1.2165063509461098 -11.625 3.0
		vertex 1.125 -11.71650635094611 3.0
	endloop
endfacet
facet normal 0 0 0
	outer loop
		vertex 1.2165063509461098 -11.625 0.0
		vertex 1.25 -11.5 0.0
		vertex 1.25 -11.5 3.0
	endloop
endfacet
facet normal 0 0 0
	outer loop
		vertex 1.2165063509461098 -11.625 0.0
		vertex 1.25 -11.5 3.0
		vertex 1.2165063509461098 -11.625 3.0
	endloop
endfacet
endsolid 
