solid 
facet normal 0 0 0
	outer loop
		vertex -25.0 -15.0 -0.075
		vertex -25.0 15.0 -0.075
		vertex 25.0 -15.0 -0.075
	endloop
endfacet
facet normal 0 0 0
	outer loop
		vertex -25.0 15.0 -0.075
		vertex 25.0 15.0 -0.075
		vertex 25.0 -15.0 -0.075
	endloop
endfacet
facet normal 0 0 0
	outer loop
		vertex -25.0 -15.0 0.075
		vertex 25.0 -15.0 0.075
		vertex -25.0 15.0 0.075
	endloop
endfacet
facet normal 0 0 0
	outer loop
		vertex 25.0 -15.0 0.075
		vertex 25.0 15.0 0.075
		vertex -25.0 15.0 0.075
	endloop
endfacet
facet normal 0 0 0
	outer loop
		vertex -25.0 -15.0 -0.075
		vertex 25.0 -15.0 -0.075
		vertex -25.0 -15.0 0.075
	endloop
endfacet
facet normal 0 0 0
	outer loop
		vertex 25.0 -15.0 -0.075
		vertex 25.0 -15.0 0.075
		vertex -25.0 -15.0 0.075
	endloop
endfacet
facet normal 0 0 0
	outer loop
		vertex -25.0 15.0 -0.075
		vertex -25.0 15.0 0.075
		vertex 25.0 15.0 -0.075
	endloop
endfacet
facet normal 0 0 0
	outer loop
		vertex 25.0 15.0 -0.075
		vertex -25.0 15.0 0.075
		vertex 25.0 15.0 0.075
	endloop
endfacet
facet normal 0 0 0
	outer loop
		vertex -25.0 -15.0 -0.075
		vertex -25.0 -15.0 0.075
		vertex -25.0 15.0 -0.075
	endloop
endfacet
facet normal 0 0 0
	outer loop
		vertex -25.0 15.0 -0.075
		vertex -25.0 -15.0 0.075
		vertex -25.0 15.0 0.075
	endloop
endfacet
facet normal 0 0 0
	outer loop
		vertex 25.0 15.0 -0.075
		vertex 25.0 15.0 0.075
		vertex 25.0 -15.0 0.075
	endloop
endfacet
facet normal 0 0 0
	outer loop
		vertex 25.0 15.0 -0.075
		vertex 25.0 -15.0 0.075
		vertex 25.0 -15.0 -0.075
	endloop
endfacet
endsolid 
solid 
facet normal 0 0 0
	outer loop
		vertex -24.7 -14.7 0.075
		vertex -24.7 14.7 0.075
		vertex 24.7 -14.7 0.075
	endloop
endfacet
facet normal 0 0 0
	outer loop
		vertex -24.7 14.7 0.075
		vertex 24.7 14.7 0.075
		vertex 24.7 -14.7 0.075
	endloop
endfacet
facet normal 0 0 0
	outer loop
		vertex -24.7 -14.7 0.22499999999999998
		vertex 24.7 -14.7 0.22499999999999998
		vertex -24.7 14.7 0.22499999999999998
	endloop
endfacet
facet normal 0 0 0
	outer loop
		vertex 24.7 -14.7 0.22499999999999998
		vertex 24.7 14.7 0.22499999999999998
		vertex -24.7 14.7 0.22499999999999998
	endloop
endfacet
facet normal 0 0 0
	outer loop
		vertex -24.7 -14.7 0.075
		vertex 24.7 -14.7 0.075
		vertex -24.7 -14.7 0.22499999999999998
	endloop
endfacet
facet normal 0 0 0
	outer loop
		vertex 24.7 -14.7 0.075
		vertex 24.7 -14.7 0.22499999999999998
		vertex -24.7 -14.7 0.22499999999999998
	endloop
endfacet
facet normal 0 0 0
	outer loop
		vertex -24.7 14.7 0.075
		vertex -24.7 14.7 0.22499999999999998
		vertex 24.7 14.7 0.075
	endloop
endfacet
facet normal 0 0 0
	outer loop
		vertex 24.7 14.7 0.075
		vertex -24.7 14.7 0.22499999999999998
		vertex 24.7 14.7 0.22499999999999998
	endloop
endfacet
facet normal 0 0 0
	outer loop
		vertex -24.7 -14.7 0.075
		vertex -24.7 -14.7 0.22499999999999998
		vertex -24.7 14.7 0.075
	endloop
endfacet
facet normal 0 0 0
	outer loop
		vertex -24.7 14.7 0.075
		vertex -24.7 -14.7 0.22499999999999998
		vertex -24.7 14.7 0.22499999999999998
	endloop
endfacet
facet normal 0 0 0
	outer loop
		vertex 24.7 14.7 0.075
		vertex 24.7 14.7 0.22499999999999998
		vertex 24.7 -14.7 0.22499999999999998
	endloop
endfacet
facet normal 0 0 0
	outer loop
		vertex 24.7 14.7 0.075
		vertex 24.7 -14.7 0.22499999999999998
		vertex 24.7 -14.7 0.075
	endloop
endfacet
endsolid 
solid 
facet normal 0 0 0
	outer loop
		vertex -24.4 -14.4 0.22499999999999998
		vertex -24.4 14.4 0.22499999999999998
		vertex 24.4 -14.4 0.22499999999999998
	endloop
endfacet
facet normal 0 0 0
	outer loop
		vertex -24.4 14.4 0.22499999999999998
		vertex 24.4 14.4 0.22499999999999998
		vertex 24.4 -14.4 0.22499999999999998
	endloop
endfacet
facet normal 0 0 0
	outer loop
		vertex -24.4 -14.4 0.375
		vertex 24.4 -14.4 0.375
		vertex -24.4 14.4 0.375
	endloop
endfacet
facet normal 0 0 0
	outer loop
		vertex 24.4 -14.4 0.375
		vertex 24.4 14.4 0.375
		vertex -24.4 14.4 0.375
	endloop
endfacet
facet normal 0 0 0
	outer loop
		vertex -24.4 -14.4 0.22499999999999998
		vertex 24.4 -14.4 0.22499999999999998
		vertex -24.4 -14.4 0.375
	endloop
endfacet
facet normal 0 0 0
	outer loop
		vertex 24.4 -14.4 0.22499999999999998
		vertex 24.4 -14.4 0.375
		vertex -24.4 -14.4 0.375
	endloop
endfacet
facet normal 0 0 0
	outer loop
		vertex -24.4 14.4 0.22499999999999998
		vertex -24.4 14.4 0.375
		vertex 24.4 14.4 0.22499999999999998
	endloop
endfacet
facet normal 0 0 0
	outer loop
		vertex 24.4 14.4 0.22499999999999998
		vertex -24.4 14.4 0.375
		vertex 24.4 14.4 0.375
	endloop
endfacet
facet normal 0 0 0
	outer loop
		vertex -24.4 -14.4 0.22499999999999998
		vertex -24.4 -14.4 0.375
		vertex -24.4 14.4 0.22499999999999998
	endloop
endfacet
facet normal 0 0 0
	outer loop
		vertex -24.4 14.4 0.22499999999999998
		vertex -24.4 -14.4 0.375
		vertex -24.4 14.4 0.375
	endloop
endfacet
facet normal 0 0 0
	outer loop
		vertex 24.4 14.4 0.22499999999999998
		vertex 24.4 14.4 0.375
		vertex 24.4 -14.4 0.375
	endloop
endfacet
facet normal 0 0 0
	outer loop
		vertex 24.4 14.4 0.22499999999999998
		vertex 24.4 -14.4 0.375
		vertex 24.4 -14.4 0.22499999999999998
	endloop
endfacet
endsolid 
solid 
facet normal 0 0 0
	outer loop
		vertex -24.1 -14.1 0.37499999999999994
		vertex -24.1 14.1 0.37499999999999994
		vertex 24.1 -14.1 0.37499999999999994
	endloop
endfacet
facet normal 0 0 0
	outer loop
		vertex -24.1 14.1 0.37499999999999994
		vertex 24.1 14.1 0.37499999999999994
		vertex 24.1 -14.1 0.37499999999999994
	endloop
endfacet
facet normal 0 0 0
	outer loop
		vertex -24.1 -14.1 0.5249999999999999
		vertex 24.1 -14.1 0.5249999999999999
		vertex -24.1 14.1 0.5249999999999999
	endloop
endfacet
facet normal 0 0 0
	outer loop
		vertex 24.1 -14.1 0.5249999999999999
		vertex 24.1 14.1 0.5249999999999999
		vertex -24.1 14.1 0.5249999999999999
	endloop
endfacet
facet normal 0 0 0
	outer loop
		vertex -24.1 -14.1 0.37499999999999994
		vertex 24.1 -14.1 0.37499999999999994
		vertex -24.1 -14.1 0.5249999999999999
	endloop
endfacet
facet normal 0 0 0
	outer loop
		vertex 24.1 -14.1 0.37499999999999994
		vertex 24.1 -14.1 0.5249999999999999
		vertex -24.1 -14.1 0.5249999999999999
	endloop
endfacet
facet normal 0 0 0
	outer loop
		vertex -24.1 14.1 0.37499999999999994
		vertex -24.1 14.1 0.5249999999999999
		vertex 24.1 14.1 0.37499999999999994
	endloop
endfacet
facet normal 0 0 0
	outer loop
		vertex 24.1 14.1 0.37499999999999994
		vertex -24.1 14.1 0.5249999999999999
		vertex 24.1 14.1 0.5249999999999999
	endloop
endfacet
facet normal 0 0 0
	outer loop
		vertex -24.1 -14.1 0.37499999999999994
		vertex -24.1 -14.1 0.5249999999999999
		vertex -24.1 14.1 0.37499999999999994
	endloop
endfacet
facet normal 0 0 0
	outer loop
		vertex -24.1 14.1 0.37499999999999994
		vertex -24.1 -14.1 0.5249999999999999
		vertex -24.1 14.1 0.5249999999999999
	endloop
endfacet
facet normal 0 0 0
	outer loop
		vertex 24.1 14.1 0.37499999999999994
		vertex 24.1 14.1 0.5249999999999999
		vertex 24.1 -14.1 0.5249999999999999
	endloop
endfacet
facet normal 0 0 0
	outer loop
		vertex 24.1 14.1 0.37499999999999994
		vertex 24.1 -14.1 0.5249999999999999
		vertex 24.1 -14.1 0.37499999999999994
	endloop
endfacet
endsolid 
solid 
facet normal 0 0 0
	outer loop
		vertex -23.8 -13.8 0.525
		vertex -23.8 13.8 0.525
		vertex 23.8 -13.8 0.525
	endloop
endfacet
facet normal 0 0 0
	outer loop
		vertex -23.8 13.8 0.525
		vertex 23.8 13.8 0.525
		vertex 23.8 -13.8 0.525
	endloop
endfacet
facet normal 0 0 0
	outer loop
		vertex -23.8 -13.8 0.6749999999999999
		vertex 23.8 -13.8 0.6749999999999999
		vertex -23.8 13.8 0.6749999999999999
	endloop
endfacet
facet normal 0 0 0
	outer loop
		vertex 23.8 -13.8 0.6749999999999999
		vertex 23.8 13.8 0.6749999999999999
		vertex -23.8 13.8 0.6749999999999999
	endloop
endfacet
facet normal 0 0 0
	outer loop
		vertex -23.8 -13.8 0.525
		vertex 23.8 -13.8 0.525
		vertex -23.8 -13.8 0.6749999999999999
	endloop
endfacet
facet normal 0 0 0
	outer loop
		vertex 23.8 -13.8 0.525
		vertex 23.8 -13.8 0.6749999999999999
		vertex -23.8 -13.8 0.6749999999999999
	endloop
endfacet
facet normal 0 0 0
	outer loop
		vertex -23.8 13.8 0.525
		vertex -23.8 13.8 0.6749999999999999
		vertex 23.8 13.8 0.525
	endloop
endfacet
facet normal 0 0 0
	outer loop
		vertex 23.8 13.8 0.525
		vertex -23.8 13.8 0.6749999999999999
		vertex 23.8 13.8 0.6749999999999999
	endloop
endfacet
facet normal 0 0 0
	outer loop
		vertex -23.8 -13.8 0.525
		vertex -23.8 -13.8 0.6749999999999999
		vertex -23.8 13.8 0.525
	endloop
endfacet
facet normal 0 0 0
	outer loop
		vertex -23.8 13.8 0.525
		vertex -23.8 -13.8 0.6749999999999999
		vertex -23.8 13.8 0.6749999999999999
	endloop
endfacet
facet normal 0 0 0
	outer loop
		vertex 23.8 13.8 0.525
		vertex 23.8 13.8 0.6749999999999999
		vertex 23.8 -13.8 0.6749999999999999
	endloop
endfacet
facet normal 0 0 0
	outer loop
		vertex 23.8 13.8 0.525
		vertex 23.8 -13.8 0.6749999999999999
		vertex 23.8 -13.8 0.525
	endloop
endfacet
endsolid 
solid 
facet normal 0 0 0
	outer loop
		vertex -23.5 -13.5 0.675
		vertex -23.5 13.5 0.675
		vertex 23.5 -13.5 0.675
	endloop
endfacet
facet normal 0 0 0
	outer loop
		vertex -23.5 13.5 0.675
		vertex 23.5 13.5 0.675
		vertex 23.5 -13.5 0.675
	endloop
endfacet
facet normal 0 0 0
	outer loop
		vertex -23.5 -13.5 0.825
		vertex 23.5 -13.5 0.825
		vertex -23.5 13.5 0.825
	endloop
endfacet
facet normal 0 0 0
	outer loop
		vertex 23.5 -13.5 0.825
		vertex 23.5 13.5 0.825
		vertex -23.5 13.5 0.825
	endloop
endfacet
facet normal 0 0 0
	outer loop
		vertex -23.5 -13.5 0.675
		vertex 23.5 -13.5 0.675
		vertex -23.5 -13.5 0.825
	endloop
endfacet
facet normal 0 0 0
	outer loop
		vertex 23.5 -13.5 0.675
		vertex 23.5 -13.5 0.825
		vertex -23.5 -13.5 0.825
	endloop
endfacet
facet normal 0 0 0
	outer loop
		vertex -23.5 13.5 0.675
		vertex -23.5 13.5 0.825
		vertex 23.5 13.5 0.675
	endloop
endfacet
facet normal 0 0 0
	outer loop
		vertex 23.5 13.5 0.675
		vertex -23.5 13.5 0.825
		vertex 23.5 13.5 0.825
	endloop
endfacet
facet normal 0 0 0
	outer loop
		vertex -23.5 -13.5 0.675
		vertex -23.5 -13.5 0.825
		vertex -23.5 13.5 0.675
	endloop
endfacet
facet normal 0 0 0
	outer loop
		vertex -23.5 13.5 0.675
		vertex -23.5 -13.5 0.825
		vertex -23.5 13.5 0.825
	endloop
endfacet
facet normal 0 0 0
	outer loop
		vertex 23.5 13.5 0.675
		vertex 23.5 13.5 0.825
		vertex 23.5 -13.5 0.825
	endloop
endfacet
facet normal 0 0 0
	outer loop
		vertex 23.5 13.5 0.675
		vertex 23.5 -13.5 0.825
		vertex 23.5 -13.5 0.675
	endloop
endfacet
endsolid 
solid 
facet normal 0 0 0
	outer loop
		vertex -23.2 -13.2 0.825
		vertex -23.2 13.2 0.825
		vertex 23.2 -13.2 0.825
	endloop
endfacet
facet normal 0 0 0
	outer loop
		vertex -23.2 13.2 0.825
		vertex 23.2 13.2 0.825
		vertex 23.2 -13.2 0.825
	endloop
endfacet
facet normal 0 0 0
	outer loop
		vertex -23.2 -13.2 0.9749999999999999
		vertex 23.2 -13.2 0.9749999999999999
		vertex -23.2 13.2 0.9749999999999999
	endloop
endfacet
facet normal 0 0 0
	outer loop
		vertex 23.2 -13.2 0.9749999999999999
		vertex 23.2 13.2 0.9749999999999999
		vertex -23.2 13.2 0.9749999999999999
	endloop
endfacet
facet normal 0 0 0
	outer loop
		vertex -23.2 -13.2 0.825
		vertex 23.2 -13.2 0.825
		vertex -23.2 -13.2 0.9749999999999999
	endloop
endfacet
facet normal 0 0 0
	outer loop
		vertex 23.2 -13.2 0.825
		vertex 23.2 -13.2 0.9749999999999999
		vertex -23.2 -13.2 0.9749999999999999
	endloop
endfacet
facet normal 0 0 0
	outer loop
		vertex -23.2 13.2 0.825
		vertex -23.2 13.2 0.9749999999999999
		vertex 23.2 13.2 0.825
	endloop
endfacet
facet normal 0 0 0
	outer loop
		vertex 23.2 13.2 0.825
		vertex -23.2 13.2 0.9749999999999999
		vertex 23.2 13.2 0.9749999999999999
	endloop
endfacet
facet normal 0 0 0
	outer loop
		vertex -23.2 -13.2 0.825
		vertex -23.2 -13.2 0.9749999999999999
		vertex -23.2 13.2 0.825
	endloop
endfacet
facet normal 0 0 0
	outer loop
		vertex -23.2 13.2 0.825
		vertex -23.2 -13.2 0.9749999999999999
		vertex -23.2 13.2 0.9749999999999999
	endloop
endfacet
facet normal 0 0 0
	outer loop
		vertex 23.2 13.2 0.825
		vertex 23.2 13.2 0.9749999999999999
		vertex 23.2 -13.2 0.9749999999999999
	endloop
endfacet
facet normal 0 0 0
	outer loop
		vertex 23.2 13.2 0.825
		vertex 23.2 -13.2 0.9749999999999999
		vertex 23.2 -13.2 0.825
	endloop
endfacet
endsolid 
solid 
facet normal 0 0 0
	outer loop
		vertex -22.9 -12.9 0.9750000000000001
		vertex -22.9 12.9 0.9750000000000001
		vertex 22.9 -12.9 0.9750000000000001
	endloop
endfacet
facet normal 0 0 0
	outer loop
		vertex -22.9 12.9 0.9750000000000001
		vertex 22.9 12.9 0.9750000000000001
		vertex 22.9 -12.9 0.9750000000000001
	endloop
endfacet
facet normal 0 0 0
	outer loop
		vertex -22.9 -12.9 1.125
		vertex 22.9 -12.9 1.125
		vertex -22.9 12.9 1.125
	endloop
endfacet
facet normal 0 0 0
	outer loop
		vertex 22.9 -12.9 1.125
		vertex 22.9 12.9 1.125
		vertex -22.9 12.9 1.125
	endloop
endfacet
facet normal 0 0 0
	outer loop
		vertex -22.9 -12.9 0.9750000000000001
		vertex 22.9 -12.9 0.9750000000000001
		vertex -22.9 -12.9 1.125
	endloop
endfacet
facet normal 0 0 0
	outer loop
		vertex 22.9 -12.9 0.9750000000000001
		vertex 22.9 -12.9 1.125
		vertex -22.9 -12.9 1.125
	endloop
endfacet
facet normal 0 0 0
	outer loop
		vertex -22.9 12.9 0.9750000000000001
		vertex -22.9 12.9 1.125
		vertex 22.9 12.9 0.9750000000000001
	endloop
endfacet
facet normal 0 0 0
	outer loop
		vertex 22.9 12.9 0.9750000000000001
		vertex -22.9 12.9 1.125
		vertex 22.9 12.9 1.125
	endloop
endfacet
facet normal 0 0 0
	outer loop
		vertex -22.9 -12.9 0.9750000000000001
		vertex -22.9 -12.9 1.125
		vertex -22.9 12.9 0.9750000000000001
	endloop
endfacet
facet normal 0 0 0
	outer loop
		vertex -22.9 12.9 0.9750000000000001
		vertex -22.9 -12.9 1.125
		vertex -22.9 12.9 1.125
	endloop
endfacet
facet normal 0 0 0
	outer loop
		vertex 22.9 12.9 0.9750000000000001
		vertex 22.9 12.9 1.125
		vertex 22.9 -12.9 1.125
	endloop
endfacet
facet normal 0 0 0
	outer loop
		vertex 22.9 12.9 0.9750000000000001
		vertex 22.9 -12.9 1.125
		vertex 22.9 -12.9 0.9750000000000001
	endloop
endfacet
endsolid 
solid 
facet normal 0 0 0
	outer loop
		vertex -22.6 -12.6 1.125
		vertex -22.6 12.6 1.125
		vertex 22.6 -12.6 1.125
	endloop
endfacet
facet normal 0 0 0
	outer loop
		vertex -22.6 12.6 1.125
		vertex 22.6 12.6 1.125
		vertex 22.6 -12.6 1.125
	endloop
endfacet
facet normal 0 0 0
	outer loop
		vertex -22.6 -12.6 1.275
		vertex 22.6 -12.6 1.275
		vertex -22.6 12.6 1.275
	endloop
endfacet
facet normal 0 0 0
	outer loop
		vertex 22.6 -12.6 1.275
		vertex 22.6 12.6 1.275
		vertex -22.6 12.6 1.275
	endloop
endfacet
facet normal 0 0 0
	outer loop
		vertex -22.6 -12.6 1.125
		vertex 22.6 -12.6 1.125
		vertex -22.6 -12.6 1.275
	endloop
endfacet
facet normal 0 0 0
	outer loop
		vertex 22.6 -12.6 1.125
		vertex 22.6 -12.6 1.275
		vertex -22.6 -12.6 1.275
	endloop
endfacet
facet normal 0 0 0
	outer loop
		vertex -22.6 12.6 1.125
		vertex -22.6 12.6 1.275
		vertex 22.6 12.6 1.125
	endloop
endfacet
facet normal 0 0 0
	outer loop
		vertex 22.6 12.6 1.125
		vertex -22.6 12.6 1.275
		vertex 22.6 12.6 1.275
	endloop
endfacet
facet normal 0 0 0
	outer loop
		vertex -22.6 -12.6 1.125
		vertex -22.6 -12.6 1.275
		vertex -22.6 12.6 1.125
	endloop
endfacet
facet normal 0 0 0
	outer loop
		vertex -22.6 12.6 1.125
		vertex -22.6 -12.6 1.275
		vertex -22.6 12.6 1.275
	endloop
endfacet
facet normal 0 0 0
	outer loop
		vertex 22.6 12.6 1.125
		vertex 22.6 12.6 1.275
		vertex 22.6 -12.6 1.275
	endloop
endfacet
facet normal 0 0 0
	outer loop
		vertex 22.6 12.6 1.125
		vertex 22.6 -12.6 1.275
		vertex 22.6 -12.6 1.125
	endloop
endfacet
endsolid 
solid 
facet normal 0 0 0
	outer loop
		vertex -22.3 -12.3 1.275
		vertex -22.3 12.3 1.275
		vertex 22.3 -12.3 1.275
	endloop
endfacet
facet normal 0 0 0
	outer loop
		vertex -22.3 12.3 1.275
		vertex 22.3 12.3 1.275
		vertex 22.3 -12.3 1.275
	endloop
endfacet
facet normal 0 0 0
	outer loop
		vertex -22.3 -12.3 1.4249999999999998
		vertex 22.3 -12.3 1.4249999999999998
		vertex -22.3 12.3 1.4249999999999998
	endloop
endfacet
facet normal 0 0 0
	outer loop
		vertex 22.3 -12.3 1.4249999999999998
		vertex 22.3 12.3 1.4249999999999998
		vertex -22.3 12.3 1.4249999999999998
	endloop
endfacet
facet normal 0 0 0
	outer loop
		vertex -22.3 -12.3 1.275
		vertex 22.3 -12.3 1.275
		vertex -22.3 -12.3 1.4249999999999998
	endloop
endfacet
facet normal 0 0 0
	outer loop
		vertex 22.3 -12.3 1.275
		vertex 22.3 -12.3 1.4249999999999998
		vertex -22.3 -12.3 1.4249999999999998
	endloop
endfacet
facet normal 0 0 0
	outer loop
		vertex -22.3 12.3 1.275
		vertex -22.3 12.3 1.4249999999999998
		vertex 22.3 12.3 1.275
	endloop
endfacet
facet normal 0 0 0
	outer loop
		vertex 22.3 12.3 1.275
		vertex -22.3 12.3 1.4249999999999998
		vertex 22.3 12.3 1.4249999999999998
	endloop
endfacet
facet normal 0 0 0
	outer loop
		vertex -22.3 -12.3 1.275
		vertex -22.3 -12.3 1.4249999999999998
		vertex -22.3 12.3 1.275
	endloop
endfacet
facet normal 0 0 0
	outer loop
		vertex -22.3 12.3 1.275
		vertex -22.3 -12.3 1.4249999999999998
		vertex -22.3 12.3 1.4249999999999998
	endloop
endfacet
facet normal 0 0 0
	outer loop
		vertex 22.3 12.3 1.275
		vertex 22.3 12.3 1.4249999999999998
		vertex 22.3 -12.3 1.4249999999999998
	endloop
endfacet
facet normal 0 0 0
	outer loop
		vertex 22.3 12.3 1.275
		vertex 22.3 -12.3 1.4249999999999998
		vertex 22.3 -12.3 1.275
	endloop
endfacet
endsolid 
solid 
facet normal 0 0 0
	outer loop
		vertex -22.0 -12.0 1.425
		vertex -22.0 12.0 1.425
		vertex 22.0 -12.0 1.425
	endloop
endfacet
facet normal 0 0 0
	outer loop
		vertex -22.0 12.0 1.425
		vertex 22.0 12.0 1.425
		vertex 22.0 -12.0 1.425
	endloop
endfacet
facet normal 0 0 0
	outer loop
		vertex -22.0 -12.0 1.575
		vertex 22.0 -12.0 1.575
		vertex -22.0 12.0 1.575
	endloop
endfacet
facet normal 0 0 0
	outer loop
		vertex 22.0 -12.0 1.575
		vertex 22.0 12.0 1.575
		vertex -22.0 12.0 1.575
	endloop
endfacet
facet normal 0 0 0
	outer loop
		vertex -22.0 -12.0 1.425
		vertex 22.0 -12.0 1.425
		vertex -22.0 -12.0 1.575
	endloop
endfacet
facet normal 0 0 0
	outer loop
		vertex 22.0 -12.0 1.425
		vertex 22.0 -12.0 1.575
		vertex -22.0 -12.0 1.575
	endloop
endfacet
facet normal 0 0 0
	outer loop
		vertex -22.0 12.0 1.425
		vertex -22.0 12.0 1.575
		vertex 22.0 12.0 1.425
	endloop
endfacet
facet normal 0 0 0
	outer loop
		vertex 22.0 12.0 1.425
		vertex -22.0 12.0 1.575
		vertex 22.0 12.0 1.575
	endloop
endfacet
facet normal 0 0 0
	outer loop
		vertex -22.0 -12.0 1.425
		vertex -22.0 -12.0 1.575
		vertex -22.0 12.0 1.425
	endloop
endfacet
facet normal 0 0 0
	outer loop
		vertex -22.0 12.0 1.425
		vertex -22.0 -12.0 1.575
		vertex -22.0 12.0 1.575
	endloop
endfacet
facet normal 0 0 0
	outer loop
		vertex 22.0 12.0 1.425
		vertex 22.0 12.0 1.575
		vertex 22.0 -12.0 1.575
	endloop
endfacet
facet normal 0 0 0
	outer loop
		vertex 22.0 12.0 1.425
		vertex 22.0 -12.0 1.575
		vertex 22.0 -12.0 1.425
	endloop
endfacet
endsolid 
solid 
facet normal 0 0 0
	outer loop
		vertex -21.7 -11.7 1.575
		vertex -21.7 11.7 1.575
		vertex 21.7 -11.7 1.575
	endloop
endfacet
facet normal 0 0 0
	outer loop
		vertex -21.7 11.7 1.575
		vertex 21.7 11.7 1.575
		vertex 21.7 -11.7 1.575
	endloop
endfacet
facet normal 0 0 0
	outer loop
		vertex -21.7 -11.7 1.7249999999999999
		vertex 21.7 -11.7 1.7249999999999999
		vertex -21.7 11.7 1.7249999999999999
	endloop
endfacet
facet normal 0 0 0
	outer loop
		vertex 21.7 -11.7 1.7249999999999999
		vertex 21.7 11.7 1.7249999999999999
		vertex -21.7 11.7 1.7249999999999999
	endloop
endfacet
facet normal 0 0 0
	outer loop
		vertex -21.7 -11.7 1.575
		vertex 21.7 -11.7 1.575
		vertex -21.7 -11.7 1.7249999999999999
	endloop
endfacet
facet normal 0 0 0
	outer loop
		vertex 21.7 -11.7 1.575
		vertex 21.7 -11.7 1.7249999999999999
		vertex -21.7 -11.7 1.7249999999999999
	endloop
endfacet
facet normal 0 0 0
	outer loop
		vertex -21.7 11.7 1.575
		vertex -21.7 11.7 1.7249999999999999
		vertex 21.7 11.7 1.575
	endloop
endfacet
facet normal 0 0 0
	outer loop
		vertex 21.7 11.7 1.575
		vertex -21.7 11.7 1.7249999999999999
		vertex 21.7 11.7 1.7249999999999999
	endloop
endfacet
facet normal 0 0 0
	outer loop
		vertex -21.7 -11.7 1.575
		vertex -21.7 -11.7 1.7249999999999999
		vertex -21.7 11.7 1.575
	endloop
endfacet
facet normal 0 0 0
	outer loop
		vertex -21.7 11.7 1.575
		vertex -21.7 -11.7 1.7249999999999999
		vertex -21.7 11.7 1.7249999999999999
	endloop
endfacet
facet normal 0 0 0
	outer loop
		vertex 21.7 11.7 1.575
		vertex 21.7 11.7 1.7249999999999999
		vertex 21.7 -11.7 1.7249999999999999
	endloop
endfacet
facet normal 0 0 0
	outer loop
		vertex 21.7 11.7 1.575
		vertex 21.7 -11.7 1.7249999999999999
		vertex 21.7 -11.7 1.575
	endloop
endfacet
endsolid 
solid 
facet normal 0 0 0
	outer loop
		vertex -21.4 -11.4 1.7249999999999999
		vertex -21.4 11.4 1.7249999999999999
		vertex 21.4 -11.4 1.7249999999999999
	endloop
endfacet
facet normal 0 0 0
	outer loop
		vertex -21.4 11.4 1.7249999999999999
		vertex 21.4 11.4 1.7249999999999999
		vertex 21.4 -11.4 1.7249999999999999
	endloop
endfacet
facet normal 0 0 0
	outer loop
		vertex -21.4 -11.4 1.8749999999999998
		vertex 21.4 -11.4 1.8749999999999998
		vertex -21.4 11.4 1.8749999999999998
	endloop
endfacet
facet normal 0 0 0
	outer loop
		vertex 21.4 -11.4 1.8749999999999998
		vertex 21.4 11.4 1.8749999999999998
		vertex -21.4 11.4 1.8749999999999998
	endloop
endfacet
facet normal 0 0 0
	outer loop
		vertex -21.4 -11.4 1.7249999999999999
		vertex 21.4 -11.4 1.7249999999999999
		vertex -21.4 -11.4 1.8749999999999998
	endloop
endfacet
facet normal 0 0 0
	outer loop
		vertex 21.4 -11.4 1.7249999999999999
		vertex 21.4 -11.4 1.8749999999999998
		vertex -21.4 -11.4 1.8749999999999998
	endloop
endfacet
facet normal 0 0 0
	outer loop
		vertex -21.4 11.4 1.7249999999999999
		vertex -21.4 11.4 1.8749999999999998
		vertex 21.4 11.4 1.7249999999999999
	endloop
endfacet
facet normal 0 0 0
	outer loop
		vertex 21.4 11.4 1.7249999999999999
		vertex -21.4 11.4 1.8749999999999998
		vertex 21.4 11.4 1.8749999999999998
	endloop
endfacet
facet normal 0 0 0
	outer loop
		vertex -21.4 -11.4 1.7249999999999999
		vertex -21.4 -11.4 1.8749999999999998
		vertex -21.4 11.4 1.7249999999999999
	endloop
endfacet
facet normal 0 0 0
	outer loop
		vertex -21.4 11.4 1.7249999999999999
		vertex -21.4 -11.4 1.8749999999999998
		vertex -21.4 11.4 1.8749999999999998
	endloop
endfacet
facet normal 0 0 0
	outer loop
		vertex 21.4 11.4 1.7249999999999999
		vertex 21.4 11.4 1.8749999999999998
		vertex 21.4 -11.4 1.8749999999999998
	endloop
endfacet
facet normal 0 0 0
	outer loop
		vertex 21.4 11.4 1.7249999999999999
		vertex 21.4 -11.4 1.8749999999999998
		vertex 21.4 -11.4 1.7249999999999999
	endloop
endfacet
endsolid 
solid 
facet normal 0 0 0
	outer loop
		vertex -21.1 -11.1 1.875
		vertex -21.1 11.1 1.875
		vertex 21.1 -11.1 1.875
	endloop
endfacet
facet normal 0 0 0
	outer loop
		vertex -21.1 11.1 1.875
		vertex 21.1 11.1 1.875
		vertex 21.1 -11.1 1.875
	endloop
endfacet
facet normal 0 0 0
	outer loop
		vertex -21.1 -11.1 2.025
		vertex 21.1 -11.1 2.025
		vertex -21.1 11.1 2.025
	endloop
endfacet
facet normal 0 0 0
	outer loop
		vertex 21.1 -11.1 2.025
		vertex 21.1 11.1 2.025
		vertex -21.1 11.1 2.025
	endloop
endfacet
facet normal 0 0 0
	outer loop
		vertex -21.1 -11.1 1.875
		vertex 21.1 -11.1 1.875
		vertex -21.1 -11.1 2.025
	endloop
endfacet
facet normal 0 0 0
	outer loop
		vertex 21.1 -11.1 1.875
		vertex 21.1 -11.1 2.025
		vertex -21.1 -11.1 2.025
	endloop
endfacet
facet normal 0 0 0
	outer loop
		vertex -21.1 11.1 1.875
		vertex -21.1 11.1 2.025
		vertex 21.1 11.1 1.875
	endloop
endfacet
facet normal 0 0 0
	outer loop
		vertex 21.1 11.1 1.875
		vertex -21.1 11.1 2.025
		vertex 21.1 11.1 2.025
	endloop
endfacet
facet normal 0 0 0
	outer loop
		vertex -21.1 -11.1 1.875
		vertex -21.1 -11.1 2.025
		vertex -21.1 11.1 1.875
	endloop
endfacet
facet normal 0 0 0
	outer loop
		vertex -21.1 11.1 1.875
		vertex -21.1 -11.1 2.025
		vertex -21.1 11.1 2.025
	endloop
endfacet
facet normal 0 0 0
	outer loop
		vertex 21.1 11.1 1.875
		vertex 21.1 11.1 2.025
		vertex 21.1 -11.1 2.025
	endloop
endfacet
facet normal 0 0 0
	outer loop
		vertex 21.1 11.1 1.875
		vertex 21.1 -11.1 2.025
		vertex 21.1 -11.1 1.875
	endloop
endfacet
endsolid 
solid 
facet normal 0 0 0
	outer loop
		vertex -20.8 -10.8 2.025
		vertex -20.8 10.8 2.025
		vertex 20.8 -10.8 2.025
	endloop
endfacet
facet normal 0 0 0
	outer loop
		vertex -20.8 10.8 2.025
		vertex 20.8 10.8 2.025
		vertex 20.8 -10.8 2.025
	endloop
endfacet
facet normal 0 0 0
	outer loop
		vertex -20.8 -10.8 2.1750000000000003
		vertex 20.8 -10.8 2.1750000000000003
		vertex -20.8 10.8 2.1750000000000003
	endloop
endfacet
facet normal 0 0 0
	outer loop
		vertex 20.8 -10.8 2.1750000000000003
		vertex 20.8 10.8 2.1750000000000003
		vertex -20.8 10.8 2.1750000000000003
	endloop
endfacet
facet normal 0 0 0
	outer loop
		vertex -20.8 -10.8 2.025
		vertex 20.8 -10.8 2.025
		vertex -20.8 -10.8 2.1750000000000003
	endloop
endfacet
facet normal 0 0 0
	outer loop
		vertex 20.8 -10.8 2.025
		vertex 20.8 -10.8 2.1750000000000003
		vertex -20.8 -10.8 2.1750000000000003
	endloop
endfacet
facet normal 0 0 0
	outer loop
		vertex -20.8 10.8 2.025
		vertex -20.8 10.8 2.1750000000000003
		vertex 20.8 10.8 2.025
	endloop
endfacet
facet normal 0 0 0
	outer loop
		vertex 20.8 10.8 2.025
		vertex -20.8 10.8 2.1750000000000003
		vertex 20.8 10.8 2.1750000000000003
	endloop
endfacet
facet normal 0 0 0
	outer loop
		vertex -20.8 -10.8 2.025
		vertex -20.8 -10.8 2.1750000000000003
		vertex -20.8 10.8 2.025
	endloop
endfacet
facet normal 0 0 0
	outer loop
		vertex -20.8 10.8 2.025
		vertex -20.8 -10.8 2.1750000000000003
		vertex -20.8 10.8 2.1750000000000003
	endloop
endfacet
facet normal 0 0 0
	outer loop
		vertex 20.8 10.8 2.025
		vertex 20.8 10.8 2.1750000000000003
		vertex 20.8 -10.8 2.1750000000000003
	endloop
endfacet
facet normal 0 0 0
	outer loop
		vertex 20.8 10.8 2.025
		vertex 20.8 -10.8 2.1750000000000003
		vertex 20.8 -10.8 2.025
	endloop
endfacet
endsolid 
solid 
facet normal 0 0 0
	outer loop
		vertex -20.5 -10.5 2.175
		vertex -20.5 10.5 2.175
		vertex 20.5 -10.5 2.175
	endloop
endfacet
facet normal 0 0 0
	outer loop
		vertex -20.5 10.5 2.175
		vertex 20.5 10.5 2.175
		vertex 20.5 -10.5 2.175
	endloop
endfacet
facet normal 0 0 0
	outer loop
		vertex -20.5 -10.5 2.325
		vertex 20.5 -10.5 2.325
		vertex -20.5 10.5 2.325
	endloop
endfacet
facet normal 0 0 0
	outer loop
		vertex 20.5 -10.5 2.325
		vertex 20.5 10.5 2.325
		vertex -20.5 10.5 2.325
	endloop
endfacet
facet normal 0 0 0
	outer loop
		vertex -20.5 -10.5 2.175
		vertex 20.5 -10.5 2.175
		vertex -20.5 -10.5 2.325
	endloop
endfacet
facet normal 0 0 0
	outer loop
		vertex 20.5 -10.5 2.175
		vertex 20.5 -10.5 2.325
		vertex -20.5 -10.5 2.325
	endloop
endfacet
facet normal 0 0 0
	outer loop
		vertex -20.5 10.5 2.175
		vertex -20.5 10.5 2.325
		vertex 20.5 10.5 2.175
	endloop
endfacet
facet normal 0 0 0
	outer loop
		vertex 20.5 10.5 2.175
		vertex -20.5 10.5 2.325
		vertex 20.5 10.5 2.325
	endloop
endfacet
facet normal 0 0 0
	outer loop
		vertex -20.5 -10.5 2.175
		vertex -20.5 -10.5 2.325
		vertex -20.5 10.5 2.175
	endloop
endfacet
facet normal 0 0 0
	outer loop
		vertex -20.5 10.5 2.175
		vertex -20.5 -10.5 2.325
		vertex -20.5 10.5 2.325
	endloop
endfacet
facet normal 0 0 0
	outer loop
		vertex 20.5 10.5 2.175
		vertex 20.5 10.5 2.325
		vertex 20.5 -10.5 2.325
	endloop
endfacet
facet normal 0 0 0
	outer loop
		vertex 20.5 10.5 2.175
		vertex 20.5 -10.5 2.325
		vertex 20.5 -10.5 2.175
	endloop
endfacet
endsolid 
solid 
facet normal 0 0 0
	outer loop
		vertex -20.2 -10.2 2.3249999999999997
		vertex -20.2 10.2 2.3249999999999997
		vertex 20.2 -10.2 2.3249999999999997
	endloop
endfacet
facet normal 0 0 0
	outer loop
		vertex -20.2 10.2 2.3249999999999997
		vertex 20.2 10.2 2.3249999999999997
		vertex 20.2 -10.2 2.3249999999999997
	endloop
endfacet
facet normal 0 0 0
	outer loop
		vertex -20.2 -10.2 2.475
		vertex 20.2 -10.2 2.475
		vertex -20.2 10.2 2.475
	endloop
endfacet
facet normal 0 0 0
	outer loop
		vertex 20.2 -10.2 2.475
		vertex 20.2 10.2 2.475
		vertex -20.2 10.2 2.475
	endloop
endfacet
facet normal 0 0 0
	outer loop
		vertex -20.2 -10.2 2.3249999999999997
		vertex 20.2 -10.2 2.3249999999999997
		vertex -20.2 -10.2 2.475
	endloop
endfacet
facet normal 0 0 0
	outer loop
		vertex 20.2 -10.2 2.3249999999999997
		vertex 20.2 -10.2 2.475
		vertex -20.2 -10.2 2.475
	endloop
endfacet
facet normal 0 0 0
	outer loop
		vertex -20.2 10.2 2.3249999999999997
		vertex -20.2 10.2 2.475
		vertex 20.2 10.2 2.3249999999999997
	endloop
endfacet
facet normal 0 0 0
	outer loop
		vertex 20.2 10.2 2.3249999999999997
		vertex -20.2 10.2 2.475
		vertex 20.2 10.2 2.475
	endloop
endfacet
facet normal 0 0 0
	outer loop
		vertex -20.2 -10.2 2.3249999999999997
		vertex -20.2 -10.2 2.475
		vertex -20.2 10.2 2.3249999999999997
	endloop
endfacet
facet normal 0 0 0
	outer loop
		vertex -20.2 10.2 2.3249999999999997
		vertex -20.2 -10.2 2.475
		vertex -20.2 10.2 2.475
	endloop
endfacet
facet normal 0 0 0
	outer loop
		vertex 20.2 10.2 2.3249999999999997
		vertex 20.2 10.2 2.475
		vertex 20.2 -10.2 2.475
	endloop
endfacet
facet normal 0 0 0
	outer loop
		vertex 20.2 10.2 2.3249999999999997
		vertex 20.2 -10.2 2.475
		vertex 20.2 -10.2 2.3249999999999997
	endloop
endfacet
endsolid 
solid 
facet normal 0 0 0
	outer loop
		vertex -19.9 -9.9 2.4749999999999996
		vertex -19.9 9.9 2.4749999999999996
		vertex 19.9 -9.9 2.4749999999999996
	endloop
endfacet
facet normal 0 0 0
	outer loop
		vertex -19.9 9.9 2.4749999999999996
		vertex 19.9 9.9 2.4749999999999996
		vertex 19.9 -9.9 2.4749999999999996
	endloop
endfacet
facet normal 0 0 0
	outer loop
		vertex -19.9 -9.9 2.625
		vertex 19.9 -9.9 2.625
		vertex -19.9 9.9 2.625
	endloop
endfacet
facet normal 0 0 0
	outer loop
		vertex 19.9 -9.9 2.625
		vertex 19.9 9.9 2.625
		vertex -19.9 9.9 2.625
	endloop
endfacet
facet normal 0 0 0
	outer loop
		vertex -19.9 -9.9 2.4749999999999996
		vertex 19.9 -9.9 2.4749999999999996
		vertex -19.9 -9.9 2.625
	endloop
endfacet
facet normal 0 0 0
	outer loop
		vertex 19.9 -9.9 2.4749999999999996
		vertex 19.9 -9.9 2.625
		vertex -19.9 -9.9 2.625
	endloop
endfacet
facet normal 0 0 0
	outer loop
		vertex -19.9 9.9 2.4749999999999996
		vertex -19.9 9.9 2.625
		vertex 19.9 9.9 2.4749999999999996
	endloop
endfacet
facet normal 0 0 0
	outer loop
		vertex 19.9 9.9 2.4749999999999996
		vertex -19.9 9.9 2.625
		vertex 19.9 9.9 2.625
	endloop
endfacet
facet normal 0 0 0
	outer loop
		vertex -19.9 -9.9 2.4749999999999996
		vertex -19.9 -9.9 2.625
		vertex -19.9 9.9 2.4749999999999996
	endloop
endfacet
facet normal 0 0 0
	outer loop
		vertex -19.9 9.9 2.4749999999999996
		vertex -19.9 -9.9 2.625
		vertex -19.9 9.9 2.625
	endloop
endfacet
facet normal 0 0 0
	outer loop
		vertex 19.9 9.9 2.4749999999999996
		vertex 19.9 9.9 2.625
		vertex 19.9 -9.9 2.625
	endloop
endfacet
facet normal 0 0 0
	outer loop
		vertex 19.9 9.9 2.4749999999999996
		vertex 19.9 -9.9 2.625
		vertex 19.9 -9.9 2.4749999999999996
	endloop
endfacet
endsolid 
solid 
facet normal 0 0 0
	outer loop
		vertex -19.6 -9.600000000000001 2.6249999999999996
		vertex -19.6 9.600000000000001 2.6249999999999996
		vertex 19.6 -9.600000000000001 2.6249999999999996
	endloop
endfacet
facet normal 0 0 0
	outer loop
		vertex -19.6 9.600000000000001 2.6249999999999996
		vertex 19.6 9.600000000000001 2.6249999999999996
		vertex 19.6 -9.600000000000001 2.6249999999999996
	endloop
endfacet
facet normal 0 0 0
	outer loop
		vertex -19.6 -9.600000000000001 2.775
		vertex 19.6 -9.600000000000001 2.775
		vertex -19.6 9.600000000000001 2.775
	endloop
endfacet
facet normal 0 0 0
	outer loop
		vertex 19.6 -9.600000000000001 2.775
		vertex 19.6 9.600000000000001 2.775
		vertex -19.6 9.600000000000001 2.775
	endloop
endfacet
facet normal 0 0 0
	outer loop
		vertex -19.6 -9.600000000000001 2.6249999999999996
		vertex 19.6 -9.600000000000001 2.6249999999999996
		vertex -19.6 -9.600000000000001 2.775
	endloop
endfacet
facet normal 0 0 0
	outer loop
		vertex 19.6 -9.600000000000001 2.6249999999999996
		vertex 19.6 -9.600000000000001 2.775
		vertex -19.6 -9.600000000000001 2.775
	endloop
endfacet
facet normal 0 0 0
	outer loop
		vertex -19.6 9.600000000000001 2.6249999999999996
		vertex -19.6 9.600000000000001 2.775
		vertex 19.6 9.600000000000001 2.6249999999999996
	endloop
endfacet
facet normal 0 0 0
	outer loop
		vertex 19.6 9.600000000000001 2.6249999999999996
		vertex -19.6 9.600000000000001 2.775
		vertex 19.6 9.600000000000001 2.775
	endloop
endfacet
facet normal 0 0 0
	outer loop
		vertex -19.6 -9.600000000000001 2.6249999999999996
		vertex -19.6 -9.600000000000001 2.775
		vertex -19.6 9.600000000000001 2.6249999999999996
	endloop
endfacet
facet normal 0 0 0
	outer loop
		vertex -19.6 9.600000000000001 2.6249999999999996
		vertex -19.6 -9.600000000000001 2.775
		vertex -19.6 9.600000000000001 2.775
	endloop
endfacet
facet normal 0 0 0
	outer loop
		vertex 19.6 9.600000000000001 2.6249999999999996
		vertex 19.6 9.600000000000001 2.775
		vertex 19.6 -9.600000000000001 2.775
	endloop
endfacet
facet normal 0 0 0
	outer loop
		vertex 19.6 9.600000000000001 2.6249999999999996
		vertex 19.6 -9.600000000000001 2.775
		vertex 19.6 -9.600000000000001 2.6249999999999996
	endloop
endfacet
endsolid 
solid 
facet normal 0 0 0
	outer loop
		vertex -19.3 -9.3 2.775
		vertex -19.3 9.3 2.775
		vertex 19.3 -9.3 2.775
	endloop
endfacet
facet normal 0 0 0
	outer loop
		vertex -19.3 9.3 2.775
		vertex 19.3 9.3 2.775
		vertex 19.3 -9.3 2.775
	endloop
endfacet
facet normal 0 0 0
	outer loop
		vertex -19.3 -9.3 2.9250000000000003
		vertex 19.3 -9.3 2.9250000000000003
		vertex -19.3 9.3 2.9250000000000003
	endloop
endfacet
facet normal 0 0 0
	outer loop
		vertex 19.3 -9.3 2.9250000000000003
		vertex 19.3 9.3 2.9250000000000003
		vertex -19.3 9.3 2.9250000000000003
	endloop
endfacet
facet normal 0 0 0
	outer loop
		vertex -19.3 -9.3 2.775
		vertex 19.3 -9.3 2.775
		vertex -19.3 -9.3 2.9250000000000003
	endloop
endfacet
facet normal 0 0 0
	outer loop
		vertex 19.3 -9.3 2.775
		vertex 19.3 -9.3 2.9250000000000003
		vertex -19.3 -9.3 2.9250000000000003
	endloop
endfacet
facet normal 0 0 0
	outer loop
		vertex -19.3 9.3 2.775
		vertex -19.3 9.3 2.9250000000000003
		vertex 19.3 9.3 2.775
	endloop
endfacet
facet normal 0 0 0
	outer loop
		vertex 19.3 9.3 2.775
		vertex -19.3 9.3 2.9250000000000003
		vertex 19.3 9.3 2.9250000000000003
	endloop
endfacet
facet normal 0 0 0
	outer loop
		vertex -19.3 -9.3 2.775
		vertex -19.3 -9.3 2.9250000000000003
		vertex -19.3 9.3 2.775
	endloop
endfacet
facet normal 0 0 0
	outer loop
		vertex -19.3 9.3 2.775
		vertex -19.3 -9.3 2.9250000000000003
		vertex -19.3 9.3 2.9250000000000003
	endloop
endfacet
facet normal 0 0 0
	outer loop
		vertex 19.3 9.3 2.775
		vertex 19.3 9.3 2.9250000000000003
		vertex 19.3 -9.3 2.9250000000000003
	endloop
endfacet
facet normal 0 0 0
	outer loop
		vertex 19.3 9.3 2.775
		vertex 19.3 -9.3 2.9250000000000003
		vertex 19.3 -9.3 2.775
	endloop
endfacet
endsolid 
solid 
facet normal 0 0 0
	outer loop
		vertex -5.0 -12.0 0.0
		vertex -5.0 18.0 0.0
		vertex 5.0 -12.0 0.0
	endloop
endfacet
facet normal 0 0 0
	outer loop
		vertex -5.0 18.0 0.0
		vertex 5.0 18.0 0.0
		vertex 5.0 -12.0 0.0
	endloop
endfacet
facet normal 0 0 0
	outer loop
		vertex -5.0 -12.0 15.0
		vertex 5.0 -12.0 15.0
		vertex -5.0 18.0 15.0
	endloop
endfacet
facet normal 0 0 0
	outer loop
		vertex 5.0 -12.0 15.0
		vertex 5.0 18.0 15.0
		vertex -5.0 18.0 15.0
	endloop
endfacet
facet normal 0 0 0
	outer loop
		vertex -5.0 -12.0 0.0
		vertex 5.0 -12.0 0.0
		vertex -5.0 -12.0 15.0
	endloop
endfacet
facet normal 0 0 0
	outer loop
		vertex 5.0 -12.0 0.0
		vertex 5.0 -12.0 15.0
		vertex -5.0 -12.0 15.0
	endloop
endfacet
facet normal 0 0 0
	outer loop
		vertex -5.0 18.0 0.0
		vertex -5.0 18.0 15.0
		vertex 5.0 18.0 0.0
	endloop
endfacet
facet normal 0 0 0
	outer loop
		vertex 5.0 18.0 0.0
		vertex -5.0 18.0 15.0
		vertex 5.0 18.0 15.0
	endloop
endfacet
facet normal 0 0 0
	outer loop
		vertex -5.0 -12.0 0.0
		vertex -5.0 -12.0 15.0
		vertex -5.0 18.0 0.0
	endloop
endfacet
facet normal 0 0 0
	outer loop
		vertex -5.0 18.0 0.0
		vertex -5.0 -12.0 15.0
		vertex -5.0 18.0 15.0
	endloop
endfacet
facet normal 0 0 0
	outer loop
		vertex 5.0 18.0 0.0
		vertex 5.0 18.0 15.0
		vertex 5.0 -12.0 15.0
	endloop
endfacet
facet normal 0 0 0
	outer loop
		vertex 5.0 18.0 0.0
		vertex 5.0 -12.0 15.0
		vertex 5.0 -12.0 0.0
	endloop
endfacet
endsolid 
solid 
facet normal 0 0 0
	outer loop
		vertex -30.0 -12.0 0.0
		vertex -30.0 18.0 0.0
		vertex -20.0 -12.0 0.0
	endloop
endfacet
facet normal 0 0 0
	outer loop
		vertex -30.0 18.0 0.0
		vertex -20.0 18.0 0.0
		vertex -20.0 -12.0 0.0
	endloop
endfacet
facet normal 0 0 0
	outer loop
		vertex -30.0 -12.0 15.0
		vertex -20.0 -12.0 15.0
		vertex -30.0 18.0 15.0
	endloop
endfacet
facet normal 0 0 0
	outer loop
		vertex -20.0 -12.0 15.0
		vertex -20.0 18.0 15.0
		vertex -30.0 18.0 15.0
	endloop
endfacet
facet normal 0 0 0
	outer loop
		vertex -30.0 -12.0 0.0
		vertex -20.0 -12.0 0.0
		vertex -30.0 -12.0 15.0
	endloop
endfacet
facet normal 0 0 0
	outer loop
		vertex -20.0 -12.0 0.0
		vertex -20.0 -12.0 15.0
		vertex -30.0 -12.0 15.0
	endloop
endfacet
facet normal 0 0 0
	outer loop
		vertex -30.0 18.0 0.0
		vertex -30.0 18.0 15.0
		vertex -20.0 18.0 0.0
	endloop
endfacet
facet normal 0 0 0
	outer loop
		vertex -20.0 18.0 0.0
		vertex -30.0 18.0 15.0
		vertex -20.0 18.0 15.0
	endloop
endfacet
facet normal 0 0 0
	outer loop
		vertex -30.0 -12.0 0.0
		vertex -30.0 -12.0 15.0
		vertex -30.0 18.0 0.0
	endloop
endfacet
facet normal 0 0 0
	outer loop
		vertex -30.0 18.0 0.0
		vertex -30.0 -12.0 15.0
		vertex -30.0 18.0 15.0
	endloop
endfacet
facet normal 0 0 0
	outer loop
		vertex -20.0 18.0 0.0
		vertex -20.0 18.0 15.0
		vertex -20.0 -12.0 15.0
	endloop
endfacet
facet normal 0 0 0
	outer loop
		vertex -20.0 18.0 0.0
		vertex -20.0 -12.0 15.0
		vertex -20.0 -12.0 0.0
	endloop
endfacet
endsolid 
solid 
facet normal 0 0 0
	outer loop
		vertex 20.0 -12.0 0.0
		vertex 20.0 18.0 0.0
		vertex 30.0 -12.0 0.0
	endloop
endfacet
facet normal 0 0 0
	outer loop
		vertex 20.0 18.0 0.0
		vertex 30.0 18.0 0.0
		vertex 30.0 -12.0 0.0
	endloop
endfacet
facet normal 0 0 0
	outer loop
		vertex 20.0 -12.0 15.0
		vertex 30.0 -12.0 15.0
		vertex 20.0 18.0 15.0
	endloop
endfacet
facet normal 0 0 0
	outer loop
		vertex 30.0 -12.0 15.0
		vertex 30.0 18.0 15.0
		vertex 20.0 18.0 15.0
	endloop
endfacet
facet normal 0 0 0
	outer loop
		vertex 20.0 -12.0 0.0
		vertex 30.0 -12.0 0.0
		vertex 20.0 -12.0 15.0
	endloop
endfacet
facet normal 0 0 0
	outer loop
		vertex 30.0 -12.0 0.0
		vertex 30.0 -12.0 15.0
		vertex 20.0 -12.0 15.0
	endloop
endfacet
facet normal 0 0 0
	outer loop
		vertex 20.0 18.0 0.0
		vertex 20.0 18.0 15.0
		vertex 30.0 18.0 0.0
	endloop
endfacet
facet normal 0 0 0
	outer loop
		vertex 30.0 18.0 0.0
		vertex 20.0 18.0 15.0
		vertex 30.0 18.0 15.0
	endloop
endfacet
facet normal 0 0 0
	outer loop
		vertex 20.0 -12.0 0.0
		vertex 20.0 -12.0 15.0
		vertex 20.0 18.0 0.0
	endloop
endfacet
facet normal 0 0 0
	outer loop
		vertex 20.0 18.0 0.0
		vertex 20.0 -12.0 15.0
		vertex 20.0 18.0 15.0
	endloop
endfacet
facet normal 0 0 0
	outer loop
		vertex 30.0 18.0 0.0
		vertex 30.0 18.0 15.0
		vertex 30.0 -12.0 15.0
	endloop
endfacet
facet normal 0 0 0
	outer loop
		vertex 30.0 18.0 0.0
		vertex 30.0 -12.0 15.0
		vertex 30.0 -12.0 0.0
	endloop
endfacet
endsolid 
solid 
facet normal 0 0 0
	outer loop
		vertex -25.0 -9.0 6.0
		vertex -25.0 15.0 6.0
		vertex 25.0 -9.0 6.0
	endloop
endfacet
facet normal 0 0 0
	outer loop
		vertex -25.0 15.0 6.0
		vertex 25.0 15.0 6.0
		vertex 25.0 -9.0 6.0
	endloop
endfacet
facet normal 0 0 0
	outer loop
		vertex -25.0 -9.0 12.0
		vertex 25.0 -9.0 12.0
		vertex -25.0 15.0 12.0
	endloop
endfacet
facet normal 0 0 0
	outer loop
		vertex 25.0 -9.0 12.0
		vertex 25.0 15.0 12.0
		vertex -25.0 15.0 12.0
	endloop
endfacet
facet normal 0 0 0
	outer loop
		vertex -25.0 -9.0 6.0
		vertex 25.0 -9.0 6.0
		vertex -25.0 -9.0 12.0
	endloop
endfacet
facet normal 0 0 0
	outer loop
		vertex 25.0 -9.0 6.0
		vertex 25.0 -9.0 12.0
		vertex -25.0 -9.0 12.0
	endloop
endfacet
facet normal 0 0 0
	outer loop
		vertex -25.0 15.0 6.0
		vertex -25.0 15.0 12.0
		vertex 25.0 15.0 6.0
	endloop
endfacet
facet normal 0 0 0
	outer loop
		vertex 25.0 15.0 6.0
		vertex -25.0 15.0 12.0
		vertex 25.0 15.0 12.0
	endloop
endfacet
facet normal 0 0 0
	outer loop
		vertex -25.0 -9.0 6.0
		vertex -25.0 -9.0 12.0
		vertex -25.0 15.0 6.0
	endloop
endfacet
facet normal 0 0 0
	outer loop
		vertex -25.0 15.0 6.0
		vertex -25.0 -9.0 12.0
		vertex -25.0 15.0 12.0
	endloop
endfacet
facet normal 0 0 0
	outer loop
		vertex 25.0 15.0 6.0
		vertex 25.0 15.0 12.0
		vertex 25.0 -9.0 12.0
	endloop
endfacet
facet normal 0 0 0
	outer loop
		vertex 25.0 15.0 6.0
		vertex 25.0 -9.0 12.0
		vertex 25.0 -9.0 6.0
	endloop
endfacet
endsolid 
solid 
facet normal 0 0 0
	outer loop
		vertex -25.0 -6.0 0.0
		vertex -25.0 15.0 0.0
		vertex 25.0 -6.0 0.0
	endloop
endfacet
facet normal 0 0 0
	outer loop
		vertex -25.0 15.0 0.0
		vertex 25.0 15.0 0.0
		vertex 25.0 -6.0 0.0
	endloop
endfacet
facet normal 0 0 0
	outer loop
		vertex -25.0 -6.0 6.0
		vertex 25.0 -6.0 6.0
		vertex -25.0 15.0 6.0
	endloop
endfacet
facet normal 0 0 0
	outer loop
		vertex 25.0 -6.0 6.0
		vertex 25.0 15.0 6.0
		vertex -25.0 15.0 6.0
	endloop
endfacet
facet normal 0 0 0
	outer loop
		vertex -25.0 -6.0 0.0
		vertex 25.0 -6.0 0.0
		vertex -25.0 -6.0 6.0
	endloop
endfacet
facet normal 0 0 0
	outer loop
		vertex 25.0 -6.0 0.0
		vertex 25.0 -6.0 6.0
		vertex -25.0 -6.0 6.0
	endloop
endfacet
facet normal 0 0 0
	outer loop
		vertex -25.0 15.0 0.0
		vertex -25.0 15.0 6.0
		vertex 25.0 15.0 0.0
	endloop
endfacet
facet normal 0 0 0
	outer loop
		vertex 25.0 15.0 0.0
		vertex -25.0 15.0 6.0
		vertex 25.0 15.0 6.0
	endloop
endfacet
facet normal 0 0 0
	outer loop
		vertex -25.0 -6.0 0.0
		vertex -25.0 -6.0 6.0
		vertex -25.0 15.0 0.0
	endloop
endfacet
facet normal 0 0 0
	outer loop
		vertex -25.0 15.0 0.0
		vertex -25.0 -6.0 6.0
		vertex -25.0 15.0 6.0
	endloop
endfacet
facet normal 0 0 0
	outer loop
		vertex 25.0 15.0 0.0
		vertex 25.0 15.0 6.0
		vertex 25.0 -6.0 6.0
	endloop
endfacet
facet normal 0 0 0
	outer loop
		vertex 25.0 15.0 0.0
		vertex 25.0 -6.0 6.0
		vertex 25.0 -6.0 0.0
	endloop
endfacet
endsolid 
